<?xml version="1.0" encoding="utf-8"?>
<!-- Generator: Adobe Illustrator 16.0.0, SVG Export Plug-In . SVG Version: 6.00 Build 0)  -->
<!DOCTYPE svg PUBLIC "-//W3C//DTD SVG 1.1//EN" "http://www.w3.org/Graphics/SVG/1.1/DTD/svg11.dtd">
<svg version="1.1" id="Capa_1" xmlns="http://www.w3.org/2000/svg" xmlns:xlink="http://www.w3.org/1999/xlink" x="0px" y="0px"
	 width="24px" height="24px" viewBox="0 0 24 24" enable-background="new 0 0 24 24" xml:space="preserve">
<polygon fill="#FFFFFF" points="13.41,12 19,17.59 17.59,19 12,13.41 11.97,13.439 6.41,19 5,17.59 10.59,12 5,6.41 6.41,5 
	12,10.59 17.59,5 19,6.41 "/>
<polygon opacity="0.5" fill="#FFFFFF" enable-background="new    " points="13.41,12 19,17.59 17.59,19 12,13.41 11.97,13.439 
	11.97,10.56 12,10.59 17.59,5 19,6.41 "/>
</svg>
