<?xml version="1.0" encoding="utf-8"?>
<!-- Generator: Adobe Illustrator 16.0.0, SVG Export Plug-In . SVG Version: 6.00 Build 0)  -->
<!DOCTYPE svg PUBLIC "-//W3C//DTD SVG 1.1//EN" "http://www.w3.org/Graphics/SVG/1.1/DTD/svg11.dtd">
<svg version="1.1" id="Capa_1" xmlns="http://www.w3.org/2000/svg" xmlns:xlink="http://www.w3.org/1999/xlink" x="0px" y="0px"
	 width="24px" height="24px" viewBox="0 0 24 24" enable-background="new 0 0 24 24" xml:space="preserve">
<path fill="none" d="M0,0h24v24H0V0z"/>
<path fill="#FFFFFF" d="M13,3c-4.97,0-9,4.03-9,9H1l3.89,3.891l0.07,0.141L9,12H6c0-3.87,3.13-7,7-7s7,3.13,7,7s-3.13,7-7,7
	c-1.93,0-3.68-0.79-4.94-2.061l-1.42,1.42C8.27,19.99,10.51,21,13,21c4.971,0,9-4.03,9-9S17.971,3,13,3z"/>
<polygon fill="#FFFFFF" points="12,8 12,13 16.279,15.54 17,14.33 13.5,12.25 13.5,8 "/>
</svg>
