<?xml version="1.0" encoding="utf-8"?>
<!DOCTYPE svg PUBLIC "-//W3C//DTD SVG 1.1//EN" "http://www.w3.org/Graphics/SVG/1.1/DTD/svg11.dtd">
<svg version="1.1" id="base" xmlns="http://www.w3.org/2000/svg" xmlns:xlink="http://www.w3.org/1999/xlink" x="0px" y="0px"
	width="1000px" height="1000px" viewBox="0 0 1000 1000"  xml:space="preserve">
	<g id="axis">
		<line  x1="500" y1="0" x2="500" y2="1000" class="axis__y" />
		<line  x1="0" y1="500" x2="1000" y2="500" class="axis__x" />
	</g>
	<g id="d38">
		<circle  fill="#FF0000" cx="786.319" cy="680" r="5.583"/>
	</g>
	<g id="d37">
		<circle  fill="#FF0000" cx="742.25" cy="680" r="5.583"/>
	</g>
	<g id="d36">
		<circle  fill="#FF0000" cx="698.181" cy="680" r="5.583"/>
	</g>
	<g id="d35">
		<circle  fill="#FF0000" cx="654.111" cy="680" r="5.583"/>
	</g>
	<g id="d34">
		<circle  fill="#FF0000" cx="610.042" cy="680" r="5.583"/>
	</g>
	<g id="d33">
		<circle  fill="#FF0000" cx="565.973" cy="680" r="5.583"/>
	</g>
	<g id="d32">
		<circle  fill="#FF0000" cx="521.903" cy="680" r="5.583"/>
	</g>
	<g id="d31">
		<circle  fill="#FF0000" cx="477.834" cy="680" r="5.583"/>
	</g>
	<g id="d41">
		<circle  fill="#FF0000" cx="427.414" cy="680" r="5.583"/>
	</g>
	<g id="d42">
		<circle  fill="#FF0000" cx="383.345" cy="680" r="5.583"/>
	</g>
	<g id="d43">
		<circle  fill="#FF0000" cx="339.276" cy="680" r="5.583"/>
	</g>
	<g id="d44">
		<circle  fill="#FF0000" cx="295.208" cy="680" r="5.583"/>
	</g>
	<g id="d45">
		<circle  fill="#FF0000" cx="251.139" cy="680" r="5.583"/>
	</g>
	<g id="d46">
		<circle  fill="#FF0000" cx="207.069" cy="680" r="5.583"/>
	</g>
	<g id="d47">
		<circle  fill="#FF0000" cx="163" cy="680" r="5.583"/>
	</g>
	<g id="d48">
		<circle  fill="#FF0000" cx="118.931" cy="680" r="5.583"/>
	</g>
	<g id="d75">
		<circle  fill="#FF0000" cx="654.111" cy="554" r="5.583"/>
	</g>
	<g id="d74">
		<circle  fill="#FF0000" cx="610.042" cy="554" r="5.583"/>
	</g>
	<g id="d73">
		<circle  fill="#FF0000" cx="565.973" cy="554" r="5.583"/>
	</g>
	<g id="d72">
		<circle  fill="#FF0000" cx="521.903" cy="554" r="5.583"/>
	</g>
	<g id="d71">
		<circle  fill="#FF0000" cx="477.834" cy="554" r="5.583"/>
	</g>
	<g id="d81">
		<circle  fill="#FF0000" cx="427.414" cy="554" r="5.583"/>
	</g>
	<g id="d82">
		<circle  fill="#FF0000" cx="383.345" cy="554" r="5.583"/>
	</g>
	<g id="d83">
		<circle  fill="#FF0000" cx="339.276" cy="554" r="5.583"/>
	</g>
	<g id="d84">
		<circle  fill="#FF0000" cx="295.208" cy="554" r="5.583"/>
	</g>
	<g id="d85">
		<circle  fill="#FF0000" cx="251.139" cy="554" r="5.583"/>
	</g>
	<g id="d65">
		<circle  fill="#FF0000" cx="654.111" cy="369" r="5.583"/>
	</g>
	<g id="d64">
		<circle  fill="#FF0000" cx="610.042" cy="369" r="5.583"/>
	</g>
	<g id="d63">
		<circle  fill="#FF0000" cx="565.973" cy="369" r="5.583"/>
	</g>
	<g id="d62">
		<circle  fill="#FF0000" cx="521.903" cy="369" r="5.583"/>
	</g>
	<g id="d61">
		<circle  fill="#FF0000" cx="477.834" cy="369" r="5.583"/>
	</g>
	<g id="d51">
		<circle  fill="#FF0000" cx="427.414" cy="369" r="5.583"/>
	</g>
	<g id="d52">
		<circle  fill="#FF0000" cx="383.345" cy="369" r="5.583"/>
	</g>
	<g id="d53">
		<circle  fill="#FF0000" cx="339.276" cy="369" r="5.583"/>
	</g>
	<g id="d54">
		<circle  fill="#FF0000" cx="295.208" cy="369" r="5.583"/>
	</g>
	<g id="d55">
		<circle  fill="#FF0000" cx="251.139" cy="369" r="5.583"/>
	</g>
	<g id="d28">
		<circle  fill="#FF0000" cx="786.319" cy="243" r="5.583"/>
	</g>
	<g id="d27">
		<circle  fill="#FF0000" cx="742.25" cy="243" r="5.583"/>
	</g>
	<g id="d26">
		<circle  fill="#FF0000" cx="698.181" cy="243" r="5.583"/>
	</g>
	<g id="d25">
		<circle  fill="#FF0000" cx="654.111" cy="243" r="5.583"/>
	</g>
	<g id="d24">
		<circle  fill="#FF0000" cx="610.042" cy="243" r="5.583"/>
	</g>
	<g id="d23">
		<circle  fill="#FF0000" cx="565.973" cy="243" r="5.583"/>
	</g>
	<g id="d22">
		<circle  fill="#FF0000" cx="521.903" cy="243" r="5.583"/>
	</g>
	<g id="d21">
		<circle  fill="#FF0000" cx="477.834" cy="243" r="5.583"/>
	</g>
	<g id="d11">
		<circle  fill="#FF0000" cx="427.414" cy="243" r="5.583"/>
	</g>
	<g id="d12">
		<circle  fill="#FF0000" cx="383.345" cy="243" r="5.583"/>
	</g>
	<g id="d13">
		<circle  fill="#FF0000" cx="339.276" cy="243" r="5.583"/>
	</g>
	<g id="d14">
		<circle  fill="#FF0000" cx="295.208" cy="243" r="5.583"/>
	</g>
	<g id="d15">
		<circle  fill="#FF0000" cx="251.139" cy="243" r="5.583"/>
	</g>
	<g id="d16">
		<circle  fill="#FF0000" cx="207.069" cy="243" r="5.583"/>
	</g>
	<g id="d17">
		<circle  fill="#FF0000" cx="163" cy="243" r="5.583"/>
	</g>
	<g id="d18">
		<circle  fill="#FF0000" cx="118.931" cy="243" r="5.583"/>
	</g>
</svg>
