<?xml version="1.0" encoding="utf-8"?>
<!DOCTYPE svg PUBLIC "-//W3C//DTD SVG 1.1//EN" "http://www.w3.org/Graphics/SVG/1.1/DTD/svg11.dtd">
<svg version="1.1" id="d11" xmlns="http://www.w3.org/2000/svg" xmlns:xlink="http://www.w3.org/1999/xlink" x="0px" y="0px"
	 width="50px" height="130px" viewBox="0 0 50 130" enable-background="new 0 0 50 130" xml:space="preserve">
<g id="diente_total">
	<g id="r1">
		<polygon fill="#FFFFFF" points="24.065,2.165 45.66,90.002 3.185,93.324 		"/>
	</g>
	<g id="corona">
		<path id="d" fill="#FFFFFF" d="M14.651,125.15c-3.32-5.431-5.82-15.46-4.92-20.21c0.279-1.46,0.689-2.69,1.22-3.73
			c-1.46-1.84-7.931-9.979-7.931-9.979c-1.35,3.56-2.119,8.42-2.01,15.05c-0.04,15.109,6.33,21.43,17.62,22.54v-0.011
			C17.281,128.63,15.901,127.22,14.651,125.15z"/>
		<path id="o" fill="#FFFFFF" d="M10.951,101.21c-0.53,1.04-0.94,2.271-1.22,3.73c-0.9,4.75,1.6,14.779,4.92,20.21l5.279-0.021h0.34
			h0.011c-0.25-6.8,4.24-6.22,4.77-6.2c0.43,0.021,5.02-0.6,4.77,6.2h0.351l7.149,0.021c2.511-5.601,3.101-17.511,3.221-20.21
			c0.05-1.141-0.2-2.181-0.68-3.11c-0.021,0.02-0.03,0.03-0.051,0.04l0.041-0.061c-2.25-4.329-9.471-6.46-14.69-6.319
			C19.801,95.63,13.771,95.66,10.951,101.21z"/>
		<path id="l" fill="#FFFFFF" d="M25.051,118.93c-0.53-0.02-5.02-0.6-4.77,6.2h-0.011c-0.09,0.03-0.199,0.03-0.34,0l-5.279,0.021
			c1.25,2.069,2.63,3.479,3.979,3.659v0.011c1.24,0.12,2.55,0.18,3.91,0.18c0.01,0,0.02,0,0.02,0c4.351,0,8.33-0.17,11.801-0.91
			c0.229-0.05,0.459-0.1,0.68-0.149c0.01,0,0.02-0.011,0.029-0.011c0.881-0.38,1.631-1.38,2.25-2.779l-7.149-0.021
			c-0.14,0.03-0.26,0.03-0.351,0C30.07,118.33,25.481,118.95,25.051,118.93z"/>
		<path id="m" fill="#FFFFFF" d="M37.32,125.15c-0.619,1.399-1.369,2.399-2.25,2.779c8.591-2.06,13.931-7.89,13.931-23.85
			c0-5.91-0.91-10.29-2.46-13.53l-0.03,0.01c0.06,1.681-3.579,9.07-6.649,11.271c0.479,0.93,0.729,1.97,0.68,3.11
			C40.421,107.64,39.831,119.55,37.32,125.15z"/>
		<path id="v" fill="#FFFFFF" d="M24.441,81.67c8.149-0.34,17.699-0.38,22.1,8.88l-0.03,0.01c0.06,1.681-3.579,9.07-6.649,11.271
			c0-0.01-0.01-0.01-0.01-0.021c-2.25-4.329-9.471-6.46-14.69-6.319c-5.36,0.14-11.391,0.17-14.21,5.72
			c-1.46-1.84-7.931-9.979-7.931-9.979C7.481,79.48,18.261,81.92,24.441,81.67z"/>
	</g>
	<path id="dibujo" class="dibujo" fill="#FFFFFF" stroke="#000000" stroke-miterlimit="10" d="M24.441,81.67
		c-5.662,0.229-15.181-1.791-20.168,6.902L24.065,2.165l21.187,86.174C40.458,81.323,31.873,81.36,24.441,81.67z M35.07,127.93
		c8.591-2.06,13.931-7.89,13.931-23.85c0-5.91-0.91-10.29-2.46-13.53c-4.4-9.26-13.95-9.22-22.1-8.88
		c-6.181,0.25-16.96-2.189-21.421,9.561c-1.35,3.56-2.119,8.42-2.01,15.05c-0.04,15.109,6.33,21.43,17.62,22.54
		c1.24,0.12,2.55,0.18,3.91,0.18c0.01,0,0.02,0,0.02,0c4.351,0,8.33-0.17,11.801-0.91c0.229-0.05,0.459-0.1,0.68-0.149
		 M34.361,128.09c0.24-0.01,0.459-0.06,0.68-0.149c0.01,0,0.02-0.011,0.029-0.011c0.881-0.38,1.631-1.38,2.25-2.779
		c2.511-5.601,3.101-17.511,3.221-20.21c0.05-1.141-0.2-2.181-0.68-3.11 M39.852,101.81c-2.25-4.329-9.471-6.46-14.69-6.319
		c-5.36,0.14-11.391,0.17-14.21,5.72c-0.53,1.04-0.94,2.271-1.22,3.73c-0.9,4.75,1.6,14.779,4.92,20.21
		c1.25,2.069,2.63,3.479,3.979,3.659 M10.951,101.21c-1.46-1.84-7.931-9.979-7.931-9.979 M39.811,101.87
		c0.021-0.01,0.03-0.021,0.051-0.04c3.07-2.2,6.709-9.59,6.649-11.271 M36.631,102.31c0.061,17.841-4.8,22.49-6.46,22.82
		c-0.14,0.03-0.26,0.03-0.351,0c0.25-6.8-4.339-6.18-4.77-6.2c-0.53-0.02-5.02-0.6-4.77,6.2h-0.351
		c-1.67-0.33-6.529-4.979-6.47-22.82"/>
</g>
</svg>
