<?xml version="1.0" encoding="utf-8"?>
<!DOCTYPE svg PUBLIC "-//W3C//DTD SVG 1.1//EN" "http://www.w3.org/Graphics/SVG/1.1/DTD/svg11.dtd">
<svg version="1.1" id="d16" xmlns="http://www.w3.org/2000/svg" xmlns:xlink="http://www.w3.org/1999/xlink" x="0px" y="0px" width="50px" height="130px" viewBox="0 0 50 130" enable-background="new 0 0 50 130" xml:space="preserve">
<g id="diente_total">
	<g id="r2">
		<polygon fill="#FFFFFF" points="24.876,4.489 36.794,92.407 11.86,93.589 		"/>
	</g>
	<g id="r3">
		<polygon fill="#FFFFFF" points="23.653,85.986 46.5,3.967 46.5,93.723 		"/>
	</g>
	<g id="r1">
		<polygon fill="#FFFFFF" points="3.5,4.893 20.956,83.204 3.5,93.723 		"/>
	</g>
	<g id="corona">
		<path id="v" fill="#FFFFFF" d="M46.76,91.02L41.15,99.08c-2.71-6.71-9.54-6-15.311-6c-5.26,0-10.649-0.01-13.2,5.189l-9.369-6.02
			l-0.32-0.11c0.79-2.47,1.88-4.39,3.29-5.83c3.86-3.939,9.97-3.939,16.43-3.939h1c1.1,0,2.19-0.01,3.26-0.03
			c1.03-0.01,2.051-0.03,3.061-0.03C37.51,82.31,43.76,83.13,46.76,91.02z"/>
		<path id="l" fill="#FFFFFF" d="M35.4,118.67l5.949,7.22c-4.05,2.851-9.699,3.48-16.78,3.48c-0.469,0-0.94,0-1.42,0
			C16.12,129.3,11.101,128.1,7.66,125.35l7.17-8.069c2.22,1.84,5.68,2.779,10.93,2.38c3.78-0.29,7.021-0.41,9.61-1.101L35.4,118.67z
			"/>
		<path id="o" fill="#FFFFFF" d="M41.15,99.08c0.75,1.87,1.189,4.33,1.189,7.54c0,8-2.53,10.78-6.97,11.939
			c-2.59,0.69-5.83,0.811-9.61,1.101c-5.25,0.399-8.71-0.54-10.93-2.38c-2.72-2.23-3.61-5.79-3.7-9.83
			c-0.09-4.141,0.471-7.08,1.51-9.181c2.551-5.199,7.94-5.189,13.2-5.189C31.61,93.08,38.44,92.37,41.15,99.08z"/>
		<path id="m" fill="#FFFFFF" d="M35.37,118.56c4.439-1.159,6.97-3.939,6.97-11.939c0-3.21-0.439-5.67-1.189-7.54l5.609-8.061
			c1.141,3.011,1.8,7.061,1.87,12.49c0.15,10.3-1.59,16.931-5.47,20.86c-0.561,0.57-1.16,1.07-1.811,1.52l-5.949-7.22L35.37,118.56z
			"/>
		<path id="d" fill="#FFFFFF" d="M14.83,117.28l-7.17,8.069c-4.271-3.38-6.101-9.159-6.28-18.119c-0.13-6.41,0.38-11.37,1.57-15.091
			l0.32,0.11l9.369,6.02c-1.039,2.101-1.6,5.04-1.51,9.181C11.22,111.49,12.11,115.05,14.83,117.28z"/>
	</g>
	<path id="dibujo" class="dibujo" fill="none" stroke="#000000" stroke-miterlimit="10" d="M46.76,91.02L41.15,99.08c-2.71-6.71-9.54-6-15.311-6
		c-5.26,0-10.649-0.01-13.2,5.189l-9.369-6.02l-0.32-0.11c0.79-2.47,1.88-4.39,3.29-5.83c3.86-3.939,9.97-3.939,16.43-3.939h1
		c1.1,0,2.19-0.01,3.26-0.03c1.03-0.01,2.051-0.03,3.061-0.03C37.51,82.31,43.76,83.13,46.76,91.02z M35.37,118.56
		c-2.59,0.69-5.83,0.811-9.61,1.101c-5.25,0.399-8.71-0.54-10.93-2.38l-7.17,8.069c3.44,2.75,8.46,3.95,15.489,4.021
		c0.48,0,0.951,0,1.42,0c7.081,0,12.73-0.63,16.78-3.48l-5.949-7.22L35.37,118.56z M25.84,93.08c-5.26,0-10.649-0.01-13.2,5.189
		c-1.039,2.101-1.6,5.04-1.51,9.181c0.09,4.04,0.98,7.6,3.7,9.83c2.22,1.84,5.68,2.779,10.93,2.38c3.78-0.29,7.021-0.41,9.61-1.101
		c4.439-1.159,6.97-3.939,6.97-11.939c0-3.21-0.439-5.67-1.189-7.54C38.44,92.37,31.61,93.08,25.84,93.08z M35.4,118.67l5.949,7.22
		c0.65-0.449,1.25-0.949,1.811-1.52c3.88-3.93,5.62-10.561,5.47-20.86c-0.07-5.43-0.729-9.479-1.87-12.49L41.15,99.08
		c0.75,1.87,1.189,4.33,1.189,7.54c0,8-2.53,10.78-6.97,11.939L35.4,118.67z M11.13,107.45c-0.09-4.141,0.471-7.08,1.51-9.181
		l-9.369-6.02l-0.32-0.11c-1.19,3.721-1.7,8.681-1.57,15.091c0.18,8.96,2.01,14.739,6.28,18.119l7.17-8.069
		C12.11,115.05,11.22,111.49,11.13,107.45z M24.397,93.085c-5.058,25.584,13.179,8.746,13.108,18.329 M24.397,119.738
		c-1.137-10.907-4.809-10.324-13.267-12.286 M46.5,90.414V3.967L31.906,56.356l-7.243,26.005c0.76-0.005,1.522-0.007,2.267-0.021
		c1.03-0.01,2.051-0.03,3.061-0.03C37.307,82.31,43.412,83.105,46.5,90.414z M24.663,82.361l7.243-26.005l-7.03-51.867
		l-8.498,58.176l4.394,19.71c0.629-0.004,1.261-0.005,1.898-0.005h1C24.005,82.37,24.33,82.362,24.663,82.361z M20.771,82.375
		l-4.394-19.71L3.5,4.893v85.764c0.724-1.766,1.629-3.212,2.74-4.348C9.72,82.759,15.027,82.409,20.771,82.375z"/>
</g>
</svg>
