<?xml version="1.0" encoding="utf-8"?>
<!DOCTYPE svg PUBLIC "-//W3C//DTD SVG 1.1//EN" "http://www.w3.org/Graphics/SVG/1.1/DTD/svg11.dtd">
<svg version="1.1" id="d17" xmlns="http://www.w3.org/2000/svg" xmlns:xlink="http://www.w3.org/1999/xlink" x="0px" y="0px" width="50px" height="130px" viewBox="0 0 50 130" enable-background="new 0 0 50 130" xml:space="preserve">
<g id="diente_total">
	<g id="r2">
		<polygon fill="#FFFFFF" stroke="#000000" stroke-miterlimit="10" points="24.633,4.489 36.552,92.407 11.618,93.589 		"/>
	</g>
	<g id="r3">
		<polygon fill="#FFFFFF" stroke="#000000" stroke-miterlimit="10" points="23.604,85.986 46.515,3.967 46.515,93.723 		"/>
	</g>
	<g id="r1">
		<polygon fill="#FFFFFF" stroke="#000000" stroke-miterlimit="10" points="3.515,4.893 19.761,83.859 3.515,93.723 		"/>
	</g>
	<g id="corona">
		<path id="v" fill="#FFFFFF" stroke="#000000" stroke-miterlimit="10" d="M45.931,91.78l-0.01,0.01l-7.02,8.91h-0.01
			c-2.681-4.86-8.521-4.86-13.881-4.86c-5.09,0-12.359,0.38-15.49,4.87l-6.709-7.271c2.68-8.75,8.219-9.58,15.939-9.58
			c0.71,0,1.439,0.011,2.18,0.021c0.78,0,1.57,0.011,2.381,0.011C32.551,83.891,41.431,83.891,45.931,91.78z"/>
		<path id="l" fill="#FFFFFF" stroke="#000000" stroke-miterlimit="10" d="M34.991,118.13l5.93,7.2c-4.3,2.55-10.13,3.32-17.02,3.32
			c-0.32,0-0.641,0-0.971-0.012c-7.289-0.068-12.26-1.158-15.64-3.479l6.37-6.44c2.58,1.841,6.22,2.812,11.35,2.421
			C29.151,120.83,32.491,119.77,34.991,118.13z"/>
		<path id="o" fill="#FFFFFF" stroke="#000000" stroke-miterlimit="10" d="M25.011,121.141c-5.13,0.391-8.77-0.58-11.35-2.421
			c-3.189-2.25-4.74-5.829-5.43-9.77c-0.641-3.681-0.061-6.33,1.289-8.24c3.131-4.49,10.4-4.87,15.49-4.87
			c5.36,0,11.2,0,13.881,4.86c0.971,1.729,1.529,4.069,1.529,7.25c0,4.27-1.85,7.819-5.43,10.18
			C32.491,119.77,29.151,120.83,25.011,121.141z"/>
		<path id="m" fill="#FFFFFF" stroke="#000000" stroke-miterlimit="10" d="M45.931,91.78c1.94,3.39,3.07,8.239,3.07,15.18
			c0,9.78-2.96,15.33-8.08,18.37l-5.93-7.2c3.58-2.36,5.43-5.91,5.43-10.18c0-3.181-0.561-5.521-1.529-7.25h0.01l7.02-8.91
			L45.931,91.78z"/>
		<path id="d" fill="#FFFFFF" stroke="#000000" stroke-miterlimit="10" d="M13.661,118.72l-6.37,6.44
			c-0.72-0.49-1.37-1.04-1.96-1.65c-3.17-3.29-4.54-8.55-4.311-16.54c0.17-5.87,0.78-10.26,1.791-13.53l6.709,7.271
			c-1.35,1.91-1.93,4.56-1.289,8.24C8.921,112.891,10.472,116.47,13.661,118.72z"/>
	</g>
	<path id="dibujo" class="dibujo" fill="none" stroke="#000000" stroke-miterlimit="10" d="M45.931,91.78l-0.01,0.01l-7.02,8.91h-0.01
		c-2.681-4.86-8.521-4.86-13.881-4.86c-5.09,0-12.359,0.38-15.49,4.87l-6.709-7.271c2.68-8.75,8.219-9.58,15.939-9.58
		c0.71,0,1.439,0.011,2.18,0.021c0.78,0,1.57,0.011,2.381,0.011C32.551,83.891,41.431,83.891,45.931,91.78z M34.991,118.13l5.93,7.2
		c-4.3,2.55-10.13,3.32-17.02,3.32c-0.32,0-0.641,0-0.971-0.012c-7.289-0.068-12.26-1.158-15.64-3.479l6.37-6.44
		c2.58,1.841,6.22,2.812,11.35,2.421C29.151,120.83,32.491,119.77,34.991,118.13z M25.011,121.141
		c-5.13,0.391-8.77-0.58-11.35-2.421c-3.189-2.25-4.74-5.829-5.43-9.77c-0.641-3.681-0.061-6.33,1.289-8.24
		c3.131-4.49,10.4-4.87,15.49-4.87c5.36,0,11.2,0,13.881,4.86c0.971,1.729,1.529,4.069,1.529,7.25c0,4.27-1.85,7.819-5.43,10.18
		C32.491,119.77,29.151,120.83,25.011,121.141z M45.931,91.78c1.94,3.39,3.07,8.239,3.07,15.18c0,9.78-2.96,15.33-8.08,18.37
		l-5.93-7.2c3.58-2.36,5.43-5.91,5.43-10.18c0-3.181-0.561-5.521-1.529-7.25h0.01l7.02-8.91L45.931,91.78z M13.661,118.72
		l-6.37,6.44c-0.72-0.49-1.37-1.04-1.96-1.65c-3.17-3.29-4.54-8.55-4.311-16.54c0.17-5.87,0.78-10.26,1.791-13.53l6.709,7.271
		c-1.35,1.91-1.93,4.56-1.289,8.24C8.921,112.891,10.472,116.47,13.661,118.72z M46.515,92.917V3.967L24.189,83.892
		c8.92,0.008,17.385,0.25,21.741,7.889C46.137,92.14,46.328,92.524,46.515,92.917z M24.189,83.892l7.546-27.014L24.633,4.489
		L15.83,64.753l3.931,19.106C19.761,83.859,24.208,83.892,24.189,83.892z M19.745,83.869l0.016-0.01L3.515,4.893v86.615
		c2.882-6.929,8.133-7.648,15.236-7.648C19.075,83.859,19.414,83.865,19.745,83.869z M38.131,102.29
		c-3.8,7.81-1.521,6.31-13.88,6.74c-8.9,0.3-9.62,0.77-13.141-4.04 M24.091,95.85c0,0,1.7,10.82-3.42,13.312 M19.44,109.2
		c0,0,1.451,7.93,0.771,8.45c-1.66,1.279-1.851,1.01-1.28,3.229"/>
</g>
</svg>
