<?xml version="1.0" encoding="utf-8"?>
<!DOCTYPE svg PUBLIC "-//W3C//DTD SVG 1.1//EN" "http://www.w3.org/Graphics/SVG/1.1/DTD/svg11.dtd">
<svg version="1.1" id="24" xmlns="http://www.w3.org/2000/svg" xmlns:xlink="http://www.w3.org/1999/xlink" x="0px" y="0px" width="50px"
	 height="130px" viewBox="0 0 50 130" enable-background="new 0 0 50 130" xml:space="preserve">

	<g id="diente_total">
		<g id="r2">
			<polygon fill="#FFFFFF" points="47.497,97.723 23.896,82.217 47.497,4.677 			"/>
		</g>
		<g id="r1">
			<polygon fill="#FFFFFF" points="2.521,96.723 2.521,4.001 23.975,81.589 			"/>
		</g>
		<g id="corona">
			<path id="m" fill="#FFFFFF" d="M4.166,89.98c-2,3.789-3.17,9.05-3.17,16.35c0,10.21,3.01,16.01,8.13,19.17l0.19-0.3l6.33-8.11
				c-4.29-1.82-6.641-4.93-6.641-9.66c0-3.27,0.67-6.109,1.75-8.51L4.166,89.98z"/>
			<path id="v" fill="#FFFFFF" d="M4.166,89.98l6.59,8.938c2.971-6.62,9-9.92,12.4-9.92c8.01,0,14.26,3.91,16.87,10.7l7.182-7.552
				c-3.28-11.721-10.771-11.818-20.609-11.818C17.656,80.33,8.746,81.27,4.166,89.98z"/>
			<path id="l" fill="#FFFFFF" d="M9.126,125.5v0.01c4.33,2.682,10.16,3.49,16.94,3.49c0.32,0,0.64,0,0.959,0
				c7.021-0.08,12.141-1.17,15.648-3.7l-0.078-0.1l-6.979-7.642c-2.7,1.291-6.39,1.819-11.1,1.439c-3.51-0.28-6.49-0.891-8.87-1.91
				l-6.33,8.11L9.126,125.5z"/>
			<path id="o" fill="#FFFFFF" d="M10.756,98.92c-1.08,2.4-1.75,5.24-1.75,8.51c0,4.73,2.351,7.84,6.641,9.66
				c2.38,1.021,5.359,1.63,8.87,1.91c4.709,0.38,8.4-0.15,11.1-1.439c3.71-1.761,5.568-4.961,5.729-9.211
				c0.121-3.238-0.35-6.14-1.32-8.647C37.416,92.91,31.166,89,23.156,89C19.756,89,13.727,92.3,10.756,98.92z"/>
			<path id="d" fill="#FFFFFF" d="M35.616,117.561l6.979,7.642l0.078,0.1c4.723-3.39,6.563-9.38,6.303-18.97
				c-0.17-6.012-0.771-10.63-1.771-14.182l-7.182,7.552c0.972,2.51,1.44,5.409,1.319,8.647
				C41.186,112.6,39.326,115.8,35.616,117.561z"/>
		</g>
		<path id="dibujo" class="dibujo" fill="none" stroke="#000000" stroke-miterlimit="10" d="M2.521,94.114V4.001L23.64,80.376
			c-7.9,0.259-15.4,1.856-19.475,9.604C3.524,91.193,2.979,92.579,2.521,94.114z M33.871,101.585
			c-0.723,7.5-4.578,7.188-11.687,6.709c-5.469-0.369-6.623-0.376-6.703-7.376 M35.069,113.585
			c0.161-5.137-6.625-5.147-13.752-5.137c-2.862,0.004-4.557,0.47-5.836,4.47 M24.462,80.355L47.496,4.677v88.606
			c-0.094-0.387-0.291-1.135-0.291-1.135c-3.279-11.721-10.77-11.819-20.609-11.819C25.883,80.329,25.171,80.339,24.462,80.355z
			 M10.753,98.92c-1.08,2.4-1.75,5.24-1.75,8.51c0,4.73,2.352,7.84,6.643,9.66l-6.33,8.11l-0.19,0.3
			c-5.12-3.16-8.13-8.96-8.13-19.17c0-7.3,1.17-12.561,3.17-16.35L10.753,98.92z M26.596,80.329c9.838,0,17.33,0.099,20.609,11.819
			l-7.182,7.55c-2.608-6.79-8.858-10.7-16.868-10.7c-3.4,0-9.43,3.3-12.4,9.92l-6.59-8.938C8.745,81.27,17.655,80.33,26.596,80.329z
			 M9.315,125.198l6.33-8.11c2.379,1.02,5.359,1.63,8.87,1.91c4.709,0.38,8.4-0.148,11.1-1.439l6.979,7.642l0.08,0.1
			c-3.509,2.53-8.629,3.62-15.65,3.7c-0.318,0-0.639,0-0.959,0c-6.779,0-12.609-0.809-16.939-3.49v-0.01L9.315,125.198z M23.155,89
			c8.01,0,14.26,3.91,16.87,10.702c0.971,2.508,1.441,5.409,1.32,8.647c-0.16,4.25-2.019,7.45-5.729,9.211
			c-2.7,1.289-6.391,1.819-11.1,1.439c-3.512-0.28-6.49-0.889-8.872-1.91c-4.289-1.82-6.641-4.93-6.641-9.66
			c0-3.27,0.67-6.109,1.75-8.51C13.726,92.3,19.755,89,23.155,89z M41.344,108.35c0.121-3.238-0.349-6.139-1.32-8.648l7.182-7.551
			c1,3.551,1.602,8.17,1.771,14.181c0.26,9.59-1.58,15.58-6.303,18.97l-0.078-0.1l-6.98-7.641
			C39.325,115.8,41.184,112.6,41.344,108.35z"/>
	</g>

</svg>
