<?xml version="1.0" encoding="utf-8"?>
<!DOCTYPE svg PUBLIC "-//W3C//DTD SVG 1.1//EN" "http://www.w3.org/Graphics/SVG/1.1/DTD/svg11.dtd">
<svg version="1.1" id="d34" xmlns="http://www.w3.org/2000/svg" xmlns:xlink="http://www.w3.org/1999/xlink" x="0px" y="0px" width="50px" height="130px" viewBox="0 0 50 130" enable-background="new 0 0 50 130" xml:space="preserve">
<g id="diente_total">
	<g id="r1">
		<polygon fill="#FFFFFF" points="25.701,124.986 3.053,33.663 46.451,36.261 		"/>
	</g>
	<g id="corona">
		<path id="l" fill="#FFFFFF" d="M6.518,8.18l6.641,6.54v0.01c2.649-1.77,6.5-2.77,11.36-3.14c4.72-0.36,8.4,0.15,11.1,1.39
			l6.63-6.97c-3.29-2.25-8.13-3.31-15.23-3.38l-0.949-0.01C17.618,2.62,10.788,3.82,6.518,8.18z"/>
		<path id="o" fill="#FFFFFF" d="M9.008,22.69c0,3.15,0.67,5.87,1.75,8.17c2.971,6.35,9,9.52,12.4,9.52c6.84,0,12.39-2.74,15.5-7.6
			c1.869-2.93,2.859-6.63,2.689-10.97c-0.16-4.08-2.02-7.14-5.729-8.83c-2.7-1.24-6.38-1.75-11.1-1.39
			c-4.86,0.37-8.71,1.37-11.36,3.14C10.458,16.53,9.008,19.13,9.008,22.69z"/>
		<path id="v" fill="#FFFFFF" d="M10.758,30.86l-6.16,7.97c4.41,8.31,13.131,9.24,22,9.24c8.84,0,15.58,0,19.09-8.26l-0.06-0.03
			l-6.97-7c-3.11,4.86-8.66,7.6-15.5,7.6C19.758,40.38,13.729,37.21,10.758,30.86z"/>
		<path id="m" fill="#FFFFFF" d="M13.158,14.72L6.518,8.18c-3.14,3.21-4.89,8.14-4.89,15.57c0,6.69,1.09,11.55,2.97,15.08l6.16-7.97
			c-1.08-2.3-1.75-5.02-1.75-8.17c0-3.56,1.45-6.16,4.15-7.96V14.72z"/>
		<path id="d" fill="#FFFFFF" d="M42.248,6.01l-6.63,6.97c3.71,1.69,5.569,4.75,5.729,8.83c0.17,4.34-0.82,8.04-2.689,10.97l6.97,7
			l0.06,0.03c1.531-3.58,2.451-8.72,2.66-16.08c0.23-7.78-1.1-12.9-4.189-16.11C43.588,7.03,42.948,6.49,42.248,6.01z"/>
	</g>
	<path id="dibujo" class="dibujo" fill="none" stroke="#000000" stroke-width="0.978" stroke-miterlimit="10" d="M26.598,48.067
		c8.708,0,15.385,0,18.939-7.898l-19.836,84.817L4.055,37.705C8.262,47.049,17.346,48.067,26.598,48.067z M26.598,48.067
		c12.672,0,21.043,0,21.75-24.333c0.226-7.785-1.104-12.904-4.186-16.109c-3.238-3.367-8.525-4.907-17.146-4.995l-0.949-0.005
		c-14.67,0-24.442,3.593-24.442,21.126C1.624,46.189,13.961,48.067,26.598,48.067z M9.007,22.693c0-7.057,5.688-10.352,15.512-11.1
		c11.181-0.85,16.557,3.162,16.829,10.216c0.442,11.532-7.234,18.571-18.188,18.569C18.52,40.377,9.007,34.501,9.007,22.693z
		 M35.615,12.977l6.637-6.962 M13.159,14.724L6.52,8.183 M10.76,30.861l-6.164,7.972 M45.629,39.779l-6.974-6.995 M30.436,17.752
		c0.166,1.545,1.381,3.609,0,3.609c-4.318,0-3.517,12.289-0.404,12.662 M19.752,34.022c3.111-0.373,3.914-12.662-0.404-12.662
		c-1.381,0-0.166-2.064,0-3.609 M35.271,22.069c-7.875-1.701-11.474-1.95-20.549-0.317"/>
</g>
</svg>
