<?xml version="1.0" encoding="utf-8"?>
<!-- Generator: Adobe Illustrator 16.0.0, SVG Export Plug-In . SVG Version: 6.00 Build 0)  -->
<!DOCTYPE svg PUBLIC "-//W3C//DTD SVG 1.1//EN" "http://www.w3.org/Graphics/SVG/1.1/DTD/svg11.dtd">
<svg version="1.1" id="d37" xmlns="http://www.w3.org/2000/svg" xmlns:xlink="http://www.w3.org/1999/xlink" x="0px" y="0px"
	 width="50px" height="130px" viewBox="0 0 50 130" enable-background="new 0 0 50 130" xml:space="preserve">
<g id="diente_total">
	<g id="r1">
		<polygon fill="#FFFFFF" points="2.501,33.864 2.501,126.538 27.119,49.285 		"/>
	</g>
	<g id="r2">
		<polygon fill="#FFFFFF" points="47.501,34.041 27.001,48.839 47.501,126.538 		"/>
	</g>
	<g id="corona">
		<path id="m" fill="#FFFFFF" d="M1.002,24.75c0,5.93,0.92,10.51,2.44,14.04l6.46-8.39c-0.58-1.87-0.891-4.09-0.891-6.71
			c0-4.54,2.351-7.52,6.63-9.26l-6.58-8.04C3.992,9.44,1.002,15,1.002,24.75z"/>
		<path id="v" fill="#FFFFFF" d="M9.902,30.4l-6.46,8.39c4.399,10.24,13.81,11.75,20.449,11.99c9.671,0.35,18.61-0.54,22.73-11.63
			l-7.092-6.59h-0.01c-2.479,4.53-7.43,6.52-14.52,6.52C17.412,39.21,11.952,36.97,9.902,30.4z"/>
		<path id="l" fill="#FFFFFF" d="M9.062,6.39l6.58,8.04c2.38-0.98,5.37-1.58,8.88-1.84c4.72-0.36,8.4,0.15,11.1,1.38l6.979-7.32
			l0.069-0.1c-3.51-2.43-8.63-3.48-15.649-3.55c-0.319,0-0.641,0-0.949,0C19.252,3,13.392,3.78,9.062,6.39z"/>
		<path id="o" fill="#FFFFFF" d="M9.012,23.69c0,2.62,0.311,4.84,0.891,6.71c2.05,6.57,7.51,8.81,15.1,8.68
			c7.09,0,12.04-1.99,14.521-6.52c1.359-2.47,1.99-5.69,1.83-9.75c-0.16-4.08-2.021-7.14-5.729-8.84c-2.7-1.229-6.38-1.74-11.1-1.38
			c-3.51,0.26-6.5,0.86-8.88,1.84C11.362,16.17,9.012,19.15,9.012,23.69z"/>
		<path id="d" fill="#FFFFFF" d="M42.602,6.65l-6.979,7.32c3.71,1.7,5.568,4.76,5.729,8.84c0.16,4.06-0.47,7.28-1.83,9.75h0.011
			l7.091,6.59c1.34-3.61,2.17-8.31,2.352-14.4c0.27-9.21-1.57-14.95-6.302-18.2L42.602,6.65z"/>
	</g>
	<path id="dibujo"   class="dibujo" fill="none" stroke="#000000" stroke-miterlimit="10" d="M47.501,36.358v90.18L27.527,50.834
		C36.49,50.73,44.322,48.478,47.501,36.358z M2.501,36.185v90.353l24.124-75.702c-0.904-0.003-1.816-0.023-2.736-0.056
		C16.726,50.522,6.336,48.775,2.501,36.185z M1.001,24.75c0-18.072,10.271-21.751,25.069-21.751c0.316,0,0.635,0.002,0.955,0.006
		C43.479,3.17,49.441,8.691,48.977,24.75c-0.721,24.782-12.264,26.493-25.087,26.03C14.958,50.458,1.001,47.84,1.001,24.75z
		 M25.001,39.083c0-1.714-1.114-12.555,0.72-13.692c2.082-1.207,1.816-9.806,0.904-12.911 M13.667,28.915
		c0-3.164,0-3.939-0.021-5.915 M39.109,28.915c-2.084-1.648-1.366-3.488-5.563-3.915 M13.667,24.976
		c21.34-0.024,26.459,1.943,24.459-6.644 M9.011,23.691c0-7.058,5.688-10.352,15.512-11.1c11.18-0.848,16.556,3.162,16.829,10.218
		c0.44,11.531-5.396,16.274-16.351,16.274C15.251,39.25,9.011,35.5,9.011,23.691z M42.604,6.646l-6.984,7.326 M15.646,14.43
		L9.053,6.38 M3.439,38.794L9.9,30.4 M39.527,32.562l7.119,6.605"/>
</g>
</svg>
