<?xml version="1.0" encoding="utf-8"?>
<!-- Generator: Adobe Illustrator 16.0.0, SVG Export Plug-In . SVG Version: 6.00 Build 0)  -->
<!DOCTYPE svg PUBLIC "-//W3C//DTD SVG 1.1//EN" "http://www.w3.org/Graphics/SVG/1.1/DTD/svg11.dtd">
<svg version="1.1" id="d38" xmlns="http://www.w3.org/2000/svg" xmlns:xlink="http://www.w3.org/1999/xlink" x="0px" y="0px"
	 width="50px" height="130px" viewBox="0 0 50 130" enable-background="new 0 0 50 130" xml:space="preserve">
<g id="diente_total">
	<g id="r1">
		<polygon fill="#FFFFFF" points="2.496,33.864 2.496,126.538 27.113,49.285 		"/>
	</g>
	<g id="r2">
		<polygon fill="#FFFFFF" points="47.497,34.041 26.996,48.839 47.497,126.538 		"/>
	</g>
	<g id="corona">
		<path id="m" fill="#FFFFFF" d="M0.998,24.75c0,5.93,0.92,10.51,2.44,14.04l6.46-8.39c-0.58-1.87-0.891-4.09-0.891-6.71
			c0-4.54,2.351-7.52,6.63-9.26l-6.58-8.04C3.988,9.44,0.998,15,0.998,24.75z"/>
		<path id="v" fill="#FFFFFF" d="M9.898,30.4l-6.46,8.39c4.399,10.24,13.81,11.75,20.439,11.99c9.67,0.35,18.609-0.54,22.75-11.62
			l-7.102-6.6h-0.01c-2.479,4.53-7.43,6.52-14.52,6.52C17.408,39.21,11.948,36.97,9.898,30.4z"/>
		<path id="l" fill="#FFFFFF" d="M9.058,6.39l6.58,8.04c2.38-0.98,5.37-1.58,8.88-1.84c4.72-0.36,8.4,0.15,11.1,1.38l6.979-7.32
			l0.069-0.1C39.146,4.12,34.037,3.07,27.018,3c-0.319,0-0.641,0-0.949,0C19.248,3,13.388,3.78,9.058,6.39z"/>
		<path id="o" fill="#FFFFFF" d="M9.008,23.69c0,2.62,0.311,4.84,0.891,6.71c2.05,6.57,7.51,8.81,15.1,8.68
			c7.09,0,12.04-1.99,14.521-6.52c1.359-2.47,1.989-5.69,1.83-9.75c-0.16-4.08-2.021-7.14-5.729-8.84
			c-2.7-1.229-6.38-1.74-11.1-1.38c-3.51,0.26-6.5,0.86-8.88,1.84C11.358,16.17,9.008,19.15,9.008,23.69z"/>
		<path id="d" fill="#FFFFFF" d="M42.598,6.65l-6.979,7.32c3.71,1.7,5.568,4.76,5.729,8.84c0.16,4.06-0.47,7.28-1.83,9.75h0.01
			l7.102,6.6c1.342-3.61,2.17-8.31,2.352-14.41c0.26-9.21-1.58-14.95-6.312-18.2L42.598,6.65z"/>
	</g>
	<path id="dibujo" class="dibujo" fill="#FFFFFF" stroke="#000000" stroke-width="0.978" stroke-miterlimit="10" d="M47.497,36.36v90.178
		L27.521,50.834C36.484,50.73,44.316,48.478,47.497,36.36z M2.496,36.186v90.353L26.62,50.836c-0.903-0.003-1.817-0.023-2.737-0.056
		C16.721,50.522,6.331,48.775,2.496,36.186z M0.996,24.75c0-18.072,10.27-21.751,25.07-21.751c0.314,0,0.634,0.002,0.953,0.006
		C43.475,3.17,49.438,8.691,48.973,24.75c-0.721,24.782-12.264,26.493-25.09,26.03C14.953,50.458,0.996,47.84,0.996,24.75z
		 M24.996,39.083c0-1.714-1.114-12.555,0.72-13.692c2.083-1.207,1.817-9.806,0.904-12.911 M13.662,28.915
		c0-3.164,0-3.939-0.02-5.915 M25.716,25.391c0.947,3.851,5.363,7.05,8.863,7.05 M16.162,32.44c2.667,0,7.807-3.135,8.334-6.659
		 M39.105,28.915c-2.084-1.648-1.4-3.813-5.601-4.24 M25.716,25.391c1.157-0.325,6.863-1.594,6.863-5.455 M13.662,24.976
		c2.482,0.554,25.779,1.009,24.947-2.728 M9.006,23.691c0-7.058,5.689-10.352,15.512-11.1c11.181-0.848,16.557,3.162,16.83,10.218
		c0.44,11.531-5.396,16.274-16.352,16.274C15.246,39.25,9.006,35.5,9.006,23.691z M35.615,13.972L42.6,6.646 M15.641,14.43
		L9.048,6.38 M3.436,38.794l6.46-8.394 M39.523,32.562l7.119,6.605 M19.082,19.854c0,3.861,5.707,5.13,6.863,5.455"/>
</g>
</svg>
