<?xml version="1.0" encoding="utf-8"?>
<!DOCTYPE svg PUBLIC "-//W3C//DTD SVG 1.1//EN" "http://www.w3.org/Graphics/SVG/1.1/DTD/svg11.dtd">
<svg version="1.1" id="d41" xmlns="http://www.w3.org/2000/svg" xmlns:xlink="http://www.w3.org/1999/xlink" x="0px" y="0px" width="50px" height="130px" viewBox="0 0 50 130" enable-background="new 0 0 50 130" xml:space="preserve">
<g id="diente_total">
	<g id="r1">
		<polygon fill="#FFFFFF" points="24.063,127.67 45.658,39.834 3.183,36.512 		"/>
	</g>
	<g id="corona">
		<path id="v" fill="#FFFFFF" d="M40.46,29c3.19,2.21,6.1,9.59,6.03,11.27c-4.5,9.27-14.26,9.24-22.59,8.9
			c-6.46-0.26-17.17,2.27-21.25-10.41l0.13-0.04c0,0,6.08-7.25,7.61-9.09c2.93,5.55,9.2,5.58,14.77,5.72
			C30.61,35.49,38.14,33.35,40.46,29z"/>
		<path id="o" fill="#FFFFFF" d="M40.46,29c-2.32,4.35-9.85,6.49-15.3,6.35c-5.57-0.14-11.84-0.17-14.77-5.72
			c-0.55-1.04-0.98-2.27-1.27-3.73c-1.05-5.3,2.17-17.32,6.12-22.13c2.84,8.81,17.01,10.65,19.09-0.42
			c3.96,4.83,6.7,19.58,6.83,22.55C41.21,27.03,40.96,28.07,40.46,29z"/>
		<path id="m" fill="#FFFFFF" d="M34.33,3.35c-0.62-0.76-1.271-1.27-1.94-1.46C42.33,3.34,49,8.52,49,26.75
			c0,5.9-0.93,10.28-2.51,13.52c0.069-1.68-2.84-9.06-6.03-11.27c0.5-0.93,0.75-1.97,0.7-3.1C41.03,22.93,38.29,8.18,34.33,3.35z"/>
		<path id="l" fill="#FFFFFF" d="M32.39,1.89c0.67,0.19,1.32,0.7,1.94,1.46c-2.08,11.07-16.25,9.23-19.09,0.42
			c0.9-1.09,1.84-1.81,2.77-1.99c2.03-0.34,4.21-0.48,6.51-0.44c2.6,0.04,5.06,0.16,7.36,0.47c0.17,0.02,0.33,0.05,0.49,0.07
			C32.37,1.89,32.38,1.89,32.39,1.89z"/>
		<path id="d" fill="#FFFFFF" d="M15.24,3.77C11.29,8.58,8.07,20.6,9.12,25.9c0.29,1.46,0.72,2.69,1.27,3.73
			c-1.53,1.84-7.61,9.09-7.61,9.09l-0.13,0.04C1.52,35.28,0.9,30.65,1.01,24.5c-0.03-14.05,6.55-20.98,17-22.72
			C17.08,1.96,16.14,2.68,15.24,3.77z"/>
	</g>
	<path id="dibujo" class="dibujo" fill="none" stroke="#000000" stroke-miterlimit="10" d="M44.907,42.889L24.063,127.67L4.718,43.212
		c4.923,7.56,13.628,5.733,19.183,5.958C31.352,49.472,39.954,49.525,44.907,42.889z M49,26.754C49,4.026,38.654,1.588,24.518,1.337
		C10.38,1.086,0.97,7.722,1.011,24.503C0.519,53.036,15.672,48.838,23.901,49.17C35.137,49.626,49,49.532,49,26.754z M18.163,1.752
		C13.078,2.42,7.82,19.335,9.116,25.896c1.831,9.274,9.438,9.287,16.048,9.455c6.611,0.166,16.305-3.035,16-9.455
		c-0.168-3.543-4.035-23.917-9.289-24.087 M10.387,29.629c-1.526,1.84-7.61,9.093-7.61,9.093 M40.402,28.965
		c3.209,2.158,6.154,9.619,6.09,11.307 M35.438,27.705c0-10.459-0.219-13.938-5-20.094 M19.625,7.83
		c-2.39,1.242-5.383,14.497-4.875,19.563 M21.5,11h8"/>
</g>
</svg>
