<?xml version="1.0" encoding="utf-8"?>
<!DOCTYPE svg PUBLIC "-//W3C//DTD SVG 1.1//EN" "http://www.w3.org/Graphics/SVG/1.1/DTD/svg11.dtd">
<svg version="1.1" id="d43" xmlns="http://www.w3.org/2000/svg" xmlns:xlink="http://www.w3.org/1999/xlink" x="0px" y="0px" width="50px" height="130px" viewBox="0 0 50 130" enable-background="new 0 0 50 130" xml:space="preserve">
<g id="diente_total">
	<g id="r1">
		<polygon fill="#FFFFFF" points="24.063,128.17 45.658,40.333 3.183,37.011 		"/>
	</g>
	<g id="corona">
		<path id="d" fill="#FFFFFF" d="M18.07,2.27c-1.4,0.23-2.81,1.69-4.09,3.81c-3.34,5.54-5.79,15.6-4.86,20.32
			c0.29,1.46,0.72,2.69,1.27,3.73c-1.53,1.84-7.61,9.09-7.61,9.09l-0.13,0.04C1.52,35.78,0.9,31.15,1.01,25
			C0.98,10.93,7.59,3.98,18.07,2.27z"/>
		<path id="o" fill="#FFFFFF" d="M40.46,29.5c-2.32,4.34-9.85,6.49-15.3,6.35c-5.57-0.14-11.84-0.17-14.77-5.72
			c-0.55-1.04-0.98-2.27-1.27-3.73c-0.93-4.72,1.52-14.78,4.86-20.32c6.27,3.98,13.58,5.48,21.54-0.43
			c3.311,5.96,5.521,18.09,5.641,20.75C41.21,27.53,40.96,28.57,40.46,29.5z"/>
		<path id="m" fill="#FFFFFF" d="M49,27.25c0,5.9-0.93,10.28-2.51,13.52c0.069-1.68-2.84-9.06-6.03-11.27
			c0.5-0.93,0.75-1.97,0.7-3.1c-0.12-2.66-2.33-14.79-5.641-20.75c-0.96-1.73-2.01-2.94-3.13-3.26C42.33,3.84,49,9.02,49,27.25z"/>
		<path id="l" fill="#FFFFFF" d="M32.39,2.39c1.12,0.32,2.17,1.53,3.13,3.26c-7.96,5.91-15.27,4.41-21.54,0.43
			c1.28-2.12,2.69-3.58,4.09-3.81c0.03-0.01,0.06-0.02,0.09-0.02c1.99-0.32,4.11-0.45,6.36-0.41c2.6,0.04,5.06,0.16,7.36,0.47
			c0.17,0.02,0.33,0.05,0.49,0.07C32.38,2.38,32.39,2.39,32.39,2.39z"/>
		<path id="v" fill="#FFFFFF" d="M40.46,29.5c3.19,2.21,6.1,9.59,6.03,11.27c-4.5,9.27-14.26,9.23-22.59,8.9
			c-6.46-0.26-17.17,2.27-21.25-10.41l0.13-0.04c0,0,6.08-7.25,7.61-9.09c2.93,5.55,9.2,5.58,14.77,5.72
			C30.61,35.99,38.14,33.84,40.46,29.5z"/>
	</g>
	<path id="dibujo" class="dibujo" fill="none" stroke="#000000" stroke-miterlimit="10" d="M44.907,43.388L24.063,128.17L4.718,43.712
		c4.923,7.559,13.628,5.733,19.183,5.957C31.352,49.971,39.954,50.025,44.907,43.388z M49,27.253
		C49,4.526,38.654,2.087,24.518,1.836C10.38,1.585,0.97,8.221,1.011,25.002c-0.492,28.533,14.661,24.335,22.89,24.667
		C35.137,50.125,49,50.032,49,27.253z M18.163,2.251C13.078,2.919,7.82,19.834,9.116,26.395c1.831,9.274,9.438,9.287,16.048,9.455
		c6.611,0.166,16.305-3.035,16-9.455c-0.168-3.543-4.035-23.917-9.289-24.087 M10.387,30.128c-1.526,1.84-7.61,9.093-7.61,9.093
		 M40.402,29.465c3.209,2.158,6.154,9.619,6.09,11.307 M35.438,28.204c0-10.459-0.219-13.938-5-20.094
		c-1.5,1.688-9.032,1.719-10.813,0.219c-2.39,1.242-5.383,14.497-4.875,19.563"/>
</g>
</svg>
