<?xml version="1.0" encoding="utf-8"?>
<!DOCTYPE svg PUBLIC "-//W3C//DTD SVG 1.1//EN" "http://www.w3.org/Graphics/SVG/1.1/DTD/svg11.dtd">
<svg version="1.1" id="d51" xmlns="http://www.w3.org/2000/svg" xmlns:xlink="http://www.w3.org/1999/xlink" x="0px" y="0px" width="50px" height="130px" viewBox="0 0 50 130" enable-background="new 0 0 50 130" xml:space="preserve">
<g id="diente_total">
	<g id="r1">
	<polygon fill="#FFFFFF" points="24.066,2.165 45.66,90.002 3.186,93.324 	"/>
	</g>
	<g id="corona">
		<path id="d" fill="#FFFFFF" d="M12.682,120.65c-2.26-5.261-3.66-12.011-2.949-15.61c0.279-1.41,0.689-2.59,1.22-3.59l-2.82-3.41
			c-0.33-0.4-0.68-0.81-1.02-1.23L3.021,91.86c-1.35,3.42-2.119,8.09-2.01,14.47c-0.04,14.53,6.33,20.6,17.62,21.67v-0.02
			C16.532,127.7,14.372,124.6,12.682,120.65z"/>
		<path id="o" fill="#FFFFFF" d="M10.952,101.45c-0.53,1-0.94,2.18-1.22,3.59c-0.711,3.6,0.689,10.35,2.949,15.61l25.95-0.131
			c1.42-5.76,1.81-13.42,1.91-15.479c0.05-1.1-0.2-2.09-0.681-2.99c-0.02,0.021-0.029,0.03-0.049,0.04l0.039-0.06
			c-2.26-4.16-9.479-6.21-14.689-6.08C19.802,96.08,13.771,96.11,10.952,101.45z"/>
		<path id="l" fill="#FFFFFF" d="M38.632,120.52l-25.95,0.131c1.69,3.949,3.851,7.05,5.95,7.33V128c1.24,0.11,2.55,0.17,3.91,0.17
			c0.01,0,0.02,0,0.02,0c4.351-0.01,8.32-0.17,11.8-0.88c0.25-0.05,0.49-0.1,0.73-0.16C36.691,126.46,37.832,123.8,38.632,120.52z"
			/>
		<path id="v" fill="#FFFFFF" d="M24.442,82.66c8.149-0.33,17.7-0.36,22.109,8.54l-0.04,0.02c0.061,1.61-3.58,8.71-6.65,10.83
			c0-0.01-0.01-0.02-0.01-0.02c-2.26-4.16-9.479-6.21-14.689-6.08c-5.36,0.13-11.391,0.16-14.21,5.5l-2.82-3.41l-1.02-1.23
			L3.021,91.86C7.482,80.55,18.262,82.91,24.442,82.66z"/>
		<path id="m" fill="#FFFFFF" d="M38.632,120.52c-0.8,3.28-1.94,5.94-3.54,6.61c8.57-1.979,13.91-7.59,13.91-22.92
			c0-5.68-0.91-9.89-2.45-13.01l-0.04,0.02c0.061,1.61-3.58,8.71-6.65,10.83c0.48,0.9,0.73,1.891,0.681,2.99
			C40.441,107.1,40.052,114.76,38.632,120.52z"/>
	</g>
	<path id="dibujo" class="dibujo" fill="none" stroke="#000000" stroke-miterlimit="10" d="M24.445,82.662c-5.767,0.229-15.541-1.8-20.446,7.112
		L24.066,2.165l21.449,87.252C40.771,82.311,32.001,82.361,24.445,82.662z M49.002,104.213c0,21.852-10.836,23.949-26.438,23.955
		c-0.006,0-0.015,0-0.019,0c-13.724,0-21.575-5.708-21.535-21.841C0.531,78.895,16.395,82.98,24.445,82.662
		C35.439,82.225,49.002,82.314,49.002,104.213z M18.633,127.982c-4.889-0.644-10.146-16.638-8.9-22.943
		c1.761-8.917,9.072-8.93,15.428-9.091c6.355-0.159,15.675,2.918,15.382,9.091c-0.162,3.404-1.133,22.093-6.185,22.256
		 M3.023,91.855c0,0,6.463,7.824,7.931,9.593 M39.811,102.086c3.084-2.074,6.762-9.248,6.699-10.869 M23.479,124.964
		c-6.248-8.731-8.692-13.86-7.289-22.513 M33.654,102.086c0,10.055,0.556,15.428-3.766,20.475"/>
</g>
</svg>
