<?xml version="1.0" encoding="utf-8"?>
<!DOCTYPE svg PUBLIC "-//W3C//DTD SVG 1.1//EN" "http://www.w3.org/Graphics/SVG/1.1/DTD/svg11.dtd">
<svg version="1.1" id="d52" xmlns="http://www.w3.org/2000/svg" xmlns:xlink="http://www.w3.org/1999/xlink" x="0px" y="0px"
	 width="50px" height="130px" viewBox="0 0 50 130" enable-background="new 0 0 50 130" xml:space="preserve">
<g id="diente_total">
	<g id="r1">
	<polygon  fill="#FFFFFF" points="24.064,2.165 45.658,90.002 3.184,93.324 	"/>
	</g>
	<g id="corona">
		<path id="d" fill="#FFFFFF" d="M12.71,120.73c-2.27-5.271-3.7-12.08-2.979-15.69c0.279-1.41,0.689-2.59,1.22-3.59
			C9.49,99.68,3.02,91.86,3.02,91.86c-1.35,3.42-2.119,8.09-2.01,14.47c-0.04,14.53,6.33,20.6,17.62,21.67v-0.02
			C16.55,127.7,14.4,124.64,12.71,120.73z"/>
		<path id="o" fill="#FFFFFF" d="M10.95,101.45c-0.53,1-0.94,2.18-1.22,3.59c-0.721,3.61,0.71,10.42,2.979,15.69l25.979-0.461
			c1.371-5.729,1.75-13.199,1.851-15.229c0.05-1.1-0.2-2.09-0.681-2.99c-0.02,0.021-0.029,0.03-0.049,0.04l0.039-0.06
			c-2.26-4.16-9.47-6.21-14.689-6.08C19.8,96.08,13.77,96.11,10.95,101.45z"/>
		<path id="l" fill="#FFFFFF" d="M38.689,120.27L12.71,120.73c1.69,3.909,3.84,6.97,5.92,7.25V128c1.24,0.11,2.55,0.17,3.91,0.17
			c0.01,0,0.02,0,0.02,0c4.351-0.01,8.331-0.17,11.8-0.88c0.25-0.05,0.49-0.1,0.73-0.16C36.73,126.44,37.88,123.66,38.689,120.27z"
			/>
		<path id="v" fill="#FFFFFF" d="M24.44,82.66c8.149-0.33,17.7-0.36,22.109,8.54l-0.04,0.02c0.061,1.61-3.58,8.71-6.65,10.83
			c0-0.01-0.01-0.02-0.01-0.02c-2.26-4.16-9.47-6.21-14.689-6.08c-5.36,0.13-11.391,0.16-14.21,5.5
			C9.49,99.68,3.02,91.86,3.02,91.86C7.48,80.55,18.26,82.91,24.44,82.66z"/>
		<path id="m" fill="#FFFFFF" d="M38.689,120.27c-0.81,3.391-1.959,6.171-3.6,6.86C43.67,125.15,49,119.54,49,104.21
			c0-5.68-0.91-9.89-2.45-13.01l-0.04,0.02c0.061,1.61-3.58,8.71-6.65,10.83c0.48,0.9,0.73,1.891,0.681,2.99
			C40.439,107.07,40.061,114.54,38.689,120.27z"/>
	</g>
	<path id="dibujo" class="dibujo" fill="#FFFFFF" stroke="#000000" stroke-miterlimit="10" d="M24.443,82.662
		c-5.768,0.229-15.544-1.801-20.448,7.12L24.064,2.165l21.449,87.25C40.768,82.311,31.999,82.361,24.443,82.662z M49.001,104.213
		c0,21.85-10.836,23.949-26.438,23.955c-0.004,0-0.013,0-0.018,0c-13.723,0-21.574-5.708-21.533-21.841
		C0.532,78.895,16.395,82.98,24.443,82.662C35.438,82.225,49.001,82.314,49.001,104.213z M18.632,127.982
		c-4.888-0.644-10.147-16.638-8.901-22.943c1.763-8.917,9.074-8.93,15.43-9.091c6.355-0.159,15.675,2.918,15.382,9.091
		c-0.163,3.404-1.133,22.093-6.185,22.256 M3.023,91.855c0,0,6.463,7.824,7.93,9.593 M39.811,102.086
		c3.084-2.074,6.762-9.248,6.698-10.869 M23.479,124.964c-6.25-8.733-8.693-13.86-7.291-22.513 M33.652,102.086
		c0,10.055,0.557,15.428-3.764,20.475"/>
</g>
</svg>
