<?xml version="1.0" encoding="utf-8"?>
<!DOCTYPE svg PUBLIC "-//W3C//DTD SVG 1.1//EN" "http://www.w3.org/Graphics/SVG/1.1/DTD/svg11.dtd">
<svg version="1.1" id="d53" xmlns="http://www.w3.org/2000/svg" xmlns:xlink="http://www.w3.org/1999/xlink" x="0px" y="0px"
	 width="50px" height="130px" viewBox="0 0 50 130" enable-background="new 0 0 50 130" xml:space="preserve">
<g id="diente_total">
	<g id="r1">
	<polygon  fill="#FFFFFF" points="25.066,2.165 46.511,90.561 4.185,93.324 	"/>
	</g>
	<g id="corona">
		<path id="d" fill="#FFFFFF" d="M10.952,101.21c-0.531,1.04-0.941,2.271-1.221,3.729c-0.721,3.771,0.711,10.86,2.99,16.341
			c1.68,4.069,3.829,7.25,5.909,7.528v0.012c-11.29-1.11-17.659-7.432-17.62-22.54c-0.109-6.63,0.66-11.49,2.01-15.05
			C3.021,91.23,9.491,99.37,10.952,101.21z"/>
		<path id="o" fill="#FFFFFF" d="M10.951,101.21c2.819-5.55,8.85-5.58,14.21-5.72c5.22-0.141,12.44,1.99,14.69,6.318l-0.041,0.062
			c0.021-0.011,0.03-0.021,0.051-0.04c0.479,0.929,0.729,1.969,0.68,3.109c-0.1,2.221-0.52,10.721-2.07,16.771l-0.14-0.04
			l-25.33-0.5l-0.281,0.11c-2.279-5.481-3.71-12.57-2.988-16.341C10.011,103.48,10.421,102.25,10.951,101.21z"/>
		<path id="l" fill="#FFFFFF" d="M38.331,121.67l0.14,0.04c-0.8,3.11-1.9,5.58-3.4,6.22c-0.01,0-0.02,0.012-0.029,0.012
			c-0.221,0.049-0.45,0.099-0.68,0.148c-3.469,0.74-7.449,0.91-11.8,0.91c0,0-0.011,0-0.021,0c-1.36,0-2.67-0.061-3.91-0.18v-0.012
			c-2.08-0.278-4.229-3.459-5.909-7.528l0.279-0.11L38.331,121.67z"/>
		<path id="m" fill="#FFFFFF" d="M40.541,104.941c0.05-1.141-0.2-2.181-0.68-3.11c3.07-2.201,6.709-9.59,6.649-11.271l0.03-0.011
			c1.55,3.24,2.46,7.62,2.46,13.53c0,15.96-5.34,21.79-13.931,23.85c1.5-0.64,2.601-3.109,3.4-6.22
			C40.021,115.66,40.441,107.16,40.541,104.941z"/>
		<path id="v" fill="#FFFFFF" d="M3.021,91.232c0,0,6.471,8.139,7.931,9.979c2.819-5.55,8.85-5.58,14.21-5.72
			c5.22-0.142,12.44,1.989,14.69,6.319c0,0.01,0.01,0.01,0.01,0.021c3.07-2.201,6.709-9.59,6.649-11.271l0.03-0.011
			c-4.4-9.26-13.951-9.22-22.101-8.88C18.261,81.92,7.481,79.48,3.021,91.232z"/>
	</g>
	<path id="dibujo" class="dibujo" fill="none" stroke="#000000" stroke-miterlimit="10" d="M24.444,81.666c-5.139,0.212-13.461-1.432-18.684,4.775
		L25.066,2.165l21.443,88.399l-0.229-0.533C41.766,81.305,32.43,81.336,24.444,81.666z M22.545,129
		c-13.722,0-21.573-5.938-21.534-22.719C0.532,77.748,16.394,81.998,24.442,81.666c10.995-0.455,24.559-0.361,24.559,22.416
		c0,22.729-10.835,24.912-26.438,24.918 M18.632,128.807c-4.887-0.668-10.146-17.303-8.9-23.865
		c1.763-9.271,9.074-9.285,15.43-9.455c6.354-0.166,15.675,3.035,15.382,9.455c-0.163,3.543-1.133,22.98-6.186,23.15 M3.024,91.229
		c0,0,6.463,8.14,7.93,9.979 M39.811,101.87c3.084-2.159,6.762-9.619,6.699-11.306 M17.071,115.313
		c6.369-4.063,11.596-4.438,17.063,0.188"/>
</g>
</svg>
