<?xml version="1.0" encoding="utf-8"?>
<!DOCTYPE svg PUBLIC "-//W3C//DTD SVG 1.1//EN" "http://www.w3.org/Graphics/SVG/1.1/DTD/svg11.dtd">
<svg version="1.1" id="d62" xmlns="http://www.w3.org/2000/svg" xmlns:xlink="http://www.w3.org/1999/xlink" x="0px" y="0px" width="50px" height="130px" viewBox="0 0 50 130" enable-background="new 0 0 50 130" xml:space="preserve">
<g id="diente_total">
	<g id="r1">
	<polygon fill="#FFFFFF" points="46.816,93.324 4.342,90.002 25.936,2.165 	"/>
	</g>
	<g id="corona">
		<path id="d" fill="#FFFFFF" d="M37.29,120.73c2.27-5.271,3.7-12.08,2.979-15.69c-0.279-1.41-0.689-2.59-1.22-3.59
			c1.46-1.771,7.931-9.59,7.931-9.59c1.35,3.42,2.119,8.09,2.01,14.47c0.04,14.53-6.33,20.6-17.62,21.67v-0.02
			C33.45,127.7,35.6,124.64,37.29,120.73z"/>
		<path id="o" fill="#FFFFFF" d="M39.05,101.45c0.53,1,0.94,2.18,1.22,3.59c0.721,3.61-0.71,10.42-2.979,15.69l-25.98-0.461
			c-1.37-5.729-1.75-13.199-1.85-15.229c-0.05-1.1,0.2-2.09,0.68-2.99c0.02,0.021,0.03,0.03,0.05,0.04l-0.04-0.06
			c2.26-4.16,9.47-6.21,14.69-6.08C30.2,96.08,36.23,96.11,39.05,101.45z"/>
		<path id="l" fill="#FFFFFF" d="M11.31,120.27l25.98,0.461c-1.69,3.909-3.84,6.97-5.92,7.25V128c-1.24,0.11-2.55,0.17-3.91,0.17
			c-0.01,0-0.02,0-0.02,0c-4.351-0.01-8.331-0.17-11.8-0.88c-0.25-0.05-0.49-0.1-0.73-0.16C13.27,126.44,12.12,123.66,11.31,120.27z
			"/>
		<path id="v" fill="#FFFFFF" d="M25.56,82.66C17.41,82.33,7.86,82.3,3.45,91.2l0.04,0.02c-0.06,1.61,3.58,8.71,6.65,10.83
			c0-0.01,0.01-0.02,0.01-0.02c2.26-4.16,9.47-6.21,14.69-6.08c5.36,0.13,11.391,0.16,14.21,5.5c1.46-1.771,7.931-9.59,7.931-9.59
			C42.52,80.55,31.74,82.91,25.56,82.66z"/>
		<path id="m" fill="#FFFFFF" d="M11.31,120.27c0.81,3.391,1.96,6.171,3.6,6.86C6.33,125.15,1,119.54,1,104.21
			c0-5.68,0.91-9.89,2.45-13.01l0.04,0.02c-0.06,1.61,3.58,8.71,6.65,10.83c-0.48,0.9-0.73,1.891-0.68,2.99
			C9.56,107.07,9.94,114.54,11.31,120.27z"/>
	</g>
	<path id="dibujo" class="dibujo" fill="#FFFFFF" stroke="#000000" stroke-miterlimit="10" d="M4.486,89.415l21.449-87.25l20.069,87.617
		c-4.904-8.921-14.681-6.892-20.448-7.12C18.001,82.361,9.232,82.311,4.486,89.415z M25.557,82.662
		c8.049,0.318,23.911-3.768,23.432,23.665c0.041,16.133-7.811,21.841-21.533,21.841c-0.005,0-0.014,0-0.018,0
		c-15.603-0.006-26.438-2.105-26.438-23.955C0.999,82.314,14.562,82.225,25.557,82.662z M15.643,127.295
		c-5.052-0.163-6.022-18.852-6.185-22.256c-0.293-6.173,9.027-9.25,15.382-9.091c6.355,0.161,13.667,0.174,15.43,9.091
		c1.246,6.306-4.014,22.3-8.901,22.943 M39.047,101.448c1.467-1.769,7.93-9.593,7.93-9.593 M3.491,91.217
		c-0.063,1.621,3.615,8.795,6.699,10.869 M33.813,102.451c1.402,8.652-1.041,13.779-7.291,22.513 M20.111,122.561
		c-4.32-5.047-3.764-10.42-3.764-20.475"/>
</g>
</svg>
