<?xml version="1.0" encoding="utf-8"?>
<!DOCTYPE svg PUBLIC "-//W3C//DTD SVG 1.1//EN" "http://www.w3.org/Graphics/SVG/1.1/DTD/svg11.dtd">
<svg version="1.1" id="d73" xmlns="http://www.w3.org/2000/svg" xmlns:xlink="http://www.w3.org/1999/xlink" x="0px" y="0px" width="50px" height="130px" viewBox="0 0 50 130" enable-background="new 0 0 50 130" xml:space="preserve">
<g id="diente_total">
	<g id="r1">
		<polygon fill="#FFFFFF" points="46.816,35.84 2.953,34.969 25.936,127 		"/>
	</g>
	<g id="corona">
		<path id="m" fill="#FFFFFF" d="M3.489,39.07c-0.061-1.61,3.58-8.72,6.649-10.83c-0.479-0.9-0.729-1.89-0.68-2.99
			c0.09-1.91-0.3-8.06,0.49-13.61c0.609-4.38,1.96-8.38,4.85-9.64c-8.89,2.11-13.8,8.19-13.8,24.08c0,5.68,0.91,9.89,2.45,13.01
			L3.489,39.07z"/>
		<path id="o" fill="#FFFFFF" d="M9.459,25.25c-0.05,1.1,0.2,2.09,0.68,2.99c0.021-0.021,0.03-0.03,0.051-0.04l-0.04,0.06
			c2.26,4.16,9.479,6.21,14.689,6.08c5.36-0.13,11.39-0.16,14.21-5.5c0.53-1,0.939-2.18,1.221-3.59
			c0.721-3.61,1.209-8.82,0.649-13.58h-30.73l-0.24-0.03C9.159,17.19,9.549,23.34,9.459,25.25z"/>
		<path id="l" fill="#FFFFFF" d="M9.949,11.64l0.24,0.03h30.729c-0.391-3.54-1.37-6.83-3.26-9.02l-0.012-0.01
			C34.609,1.55,30.889,1.02,26.439,1c-4.411-0.02-8.312,0.21-11.642,1C11.909,3.26,10.559,7.26,9.949,11.64z"/>
		<path id="v" fill="#FFFFFF" d="M3.489,39.07c-0.061-1.61,3.58-8.72,6.649-10.83c0,0.01,0.011,0.02,0.011,0.02
			c2.26,4.16,9.479,6.21,14.689,6.08c5.36-0.13,11.391-0.16,14.21-5.5c1.46,1.77,7.931,9.59,7.931,9.59
			c-4.459,11.3-15.24,8.95-21.42,9.19c-8.141,0.33-17.689,0.36-22.109-8.53L3.489,39.07z"/>
		<path id="d" fill="#FFFFFF" d="M40.919,11.67c0.56,4.76,0.069,9.97-0.649,13.58c-0.279,1.41-0.689,2.59-1.221,3.59
			c1.46,1.77,7.93,9.59,7.93,9.59c1.352-3.42,2.121-8.09,2.012-14.47C49.02,12.28,45.66,5.52,37.66,2.65
			C39.549,4.84,40.529,8.13,40.919,11.67z"/>
	</g>
	<path id="dibujo" class="dibujo" fill="none" stroke="#000000" stroke-miterlimit="10" d="M25.557,47.625c5.608-0.222,15.006,1.682,20.029-6.416
		L25.936,127L4.388,40.714C9.109,47.973,17.946,47.928,25.557,47.625z M25.557,47.625c8.049-0.319,23.912,3.767,23.434-23.664
		C49.029,7.827,42.596,1.078,26.441,1C10.286,0.922,0.999,4.224,0.999,26.075C0.999,47.973,14.562,48.063,25.557,47.625z M14.802,2
		C8.249,4.864,9.62,21.843,9.459,25.249c-0.293,6.172,9.026,9.249,15.382,9.09c6.354-0.162,13.667-0.173,15.429-9.09
		c1.246-6.306,1.813-17.499-2.621-22.606 M39.046,28.839c1.468,1.769,7.931,9.593,7.931,9.593 M3.491,39.07
		c-0.063-1.62,3.575-8.738,6.659-10.811 M15.165,11.667c-0.666,4.666,9.334,1.666,10.137,5.583c0.64-5.376,9.53-1.583,9.53-5.583"/>
</g>
</svg>
