<?xml version="1.0" encoding="utf-8"?>
<!DOCTYPE svg PUBLIC "-//W3C//DTD SVG 1.1//EN" "http://www.w3.org/Graphics/SVG/1.1/DTD/svg11.dtd">
<svg version="1.1" id="d74" xmlns="http://www.w3.org/2000/svg" xmlns:xlink="http://www.w3.org/1999/xlink" x="0px" y="0px" width="50px" height="130px" viewBox="0 0 50 130" enable-background="new 0 0 50 130" xml:space="preserve">
<g id="diente_total">
	<g id="r1">
		<polygon fill="#FFFFFF" points="2.996,126.538 2.996,35.277 25.371,48.824 		"/>
	</g>
	<g id="r2">
		<polygon fill="#FFFFFF" points="46.996,126.434 25.371,48.824 46.996,36.069 		"/>
	</g>
	<g id="corona">
		<path id="m" fill="#FFFFFF" d="M0.996,22.75c0,7,1.28,12.12,3.32,15.86l6.37-8.28c-1.091-1.96-1.681-4.64-1.681-8.26
			c0-4.54,2.351-7.52,6.63-9.26L8.716,4.6C3.846,7.7,0.996,13.22,0.996,22.75z"/>
		<path id="v" fill="#FFFFFF" d="M10.687,30.33l-6.37,8.28c4.68,8.61,13.35,9.95,19.569,10.17c9.879,0.35,19-0.58,23-12.37
			l-6.08-6.14c-2.031,5.42-7.899,5.23-15.811,5.23C18.236,35.62,13.156,34.79,10.687,30.33z"/>
		<path id="l" fill="#FFFFFF" d="M8.716,4.6l6.92,8.21c2.38-0.98,5.37-1.58,8.88-1.84c4.72-0.36,8.4,0.15,11.1,1.38l6.979-7.33
			l0.25-0.34C39.325,2.15,34.156,1.07,27.016,1c-0.32,0-0.629,0-0.949,0C19.066,1,13.086,1.82,8.716,4.6z"/>
		<path id="o" fill="#FFFFFF" d="M10.687,30.33c2.47,4.46,7.55,5.29,14.31,5.17c7.91,0,13.778,0.19,15.812-5.23
			c0.789-2.09,1-5.01,0.539-9.09c-0.16-4.07-2.021-7.13-5.729-8.83c-2.7-1.23-6.38-1.74-11.1-1.38c-3.51,0.26-6.5,0.86-8.88,1.84
			c-4.279,1.74-6.63,4.72-6.63,9.26C9.006,25.69,9.596,28.37,10.687,30.33z"/>
		<path id="d" fill="#FFFFFF" d="M42.596,5.02l-6.979,7.33c3.71,1.7,5.568,4.76,5.729,8.83c0.461,4.08,0.25,7-0.539,9.09l6.08,6.14
			c1.189-3.51,1.92-7.98,2.09-13.66c0.26-9.09-1.541-14.8-6.131-18.07L42.596,5.02z"/>
	</g>
	<path id="dibujo" class="dibujo" fill="#FFFFFF" stroke="#000000" stroke-miterlimit="10" d="M46.992,36.07l0.004-0.001v90.365L25.371,48.824
		l0.002-0.002C34.768,49.016,43.256,47.575,46.992,36.07z M2.996,35.669v90.869l22.375-77.714l-0.002-0.002
		c-0.494-0.01-0.988-0.023-1.486-0.041C17.012,48.533,7.172,46.915,2.996,35.669z M0.996,22.75c0-18.072,10.27-21.751,25.07-21.751
		c0.315,0,0.634,0.002,0.955,0.006C43.473,1.17,49.438,6.691,48.971,22.75c-0.72,24.783-12.263,26.494-25.088,26.031
		C14.953,48.459,0.996,45.84,0.996,22.75z M30.563,11.032c0,0,1.404,12.291-4.254,12.217c-9.521-0.127-12.125,0.5-13.875-2.625
		 M12.098,25.238c-0.164-1.99,1.332-3.047,4.609-2.152 M25.996,35.499c0-1.713,1.639-6.227,0.563-8.5
		c-0.873-1.846-1.473-2.793-2.5-3.77 M22.412,26.29c-1.25,3.754-2.07,6.316-2.07,9.078 M39.005,26.786
		c-1.864-1.25-5.17-4.146-8.129-3.484 M26.673,23.23c2.96,0.66,12.363-0.691,11.937-2.607 M9.006,22.066
		c0-7.057,5.689-10.352,15.512-11.1c11.18-0.848,16.556,3.163,16.828,10.217c1.65,14.691-5.396,14.316-16.35,14.316
		C15.246,35.665,9.006,33.875,9.006,22.066z M35.613,12.348l6.984-7.326 M8.721,4.599l6.92,8.206 M4.165,38.806l6.595-8.572
		 M40.807,30.275l6.078,6.132"/>
</g>
</svg>
