<?xml version="1.0" encoding="utf-8"?>
<!DOCTYPE svg PUBLIC "-//W3C//DTD SVG 1.1//EN" "http://www.w3.org/Graphics/SVG/1.1/DTD/svg11.dtd">
<svg version="1.1" id="d84" xmlns="http://www.w3.org/2000/svg" xmlns:xlink="http://www.w3.org/1999/xlink" x="0px" y="0px" width="50px" height="130px" viewBox="0 0 50 130" enable-background="new 0 0 50 130" xml:space="preserve">
<g id="diente_total">
	<g id="r2">
		<polygon fill="#FFFFFF" points="24.626,48.824 47.001,35.277 47.001,126.538 		"/>
	</g>
	<g id="r1">
		<polygon fill="#FFFFFF" points="3.001,36.069 24.626,48.824 3.001,126.434 		"/>
	</g>
	<g id="corona">
		<path id="m" fill="#FFFFFF" d="M41.281,4.6l-6.919,8.21c4.278,1.74,6.63,4.72,6.63,9.26c0,3.62-0.59,6.3-1.682,8.26l6.371,8.28
			c2.039-3.74,3.319-8.86,3.319-15.86C49.001,13.22,46.15,7.7,41.281,4.6z"/>
		<path id="v" fill="#FFFFFF" d="M25.002,35.5c-7.912,0-13.78,0.19-15.812-5.23l-6.08,6.14c4,11.79,13.121,12.72,23.001,12.37
			C32.33,48.56,41,47.22,45.68,38.61l-6.369-8.28C36.842,34.79,31.762,35.62,25.002,35.5z"/>
		<path id="l" fill="#FFFFFF" d="M23.931,1c-0.32,0-0.629,0-0.949,0c-7.141,0.07-12.31,1.15-15.83,3.68l0.25,0.34l6.979,7.33
			c2.7-1.23,6.38-1.74,11.1-1.38c3.51,0.26,6.5,0.86,8.88,1.84l6.92-8.21C36.911,1.82,30.932,1,23.931,1z"/>
		<path id="o" fill="#FFFFFF" d="M40.988,22.07c0-4.54-2.352-7.52-6.631-9.26c-2.379-0.98-5.369-1.58-8.879-1.84
			c-4.719-0.36-8.4,0.15-11.1,1.38c-3.708,1.7-5.568,4.76-5.729,8.83c-0.461,4.08-0.25,7,0.539,9.09
			C11.222,35.69,17.09,35.5,25,35.5c6.76,0.12,11.84-0.71,14.311-5.17C40.4,28.37,40.991,25.69,40.988,22.07z"/>
		<path id="d" fill="#FFFFFF" d="M7.151,4.68c-4.59,3.27-6.391,8.98-6.131,18.07c0.17,5.68,0.9,10.15,2.09,13.66l6.08-6.14
			c-0.789-2.09-1-5.01-0.539-9.09c0.16-4.07,2.019-7.13,5.729-8.83L7.401,5.02L7.151,4.68z"/>
	</g>
	<path id="dibujo" class="dibujo" fill="#FFFFFF" stroke="#000000" stroke-miterlimit="10" d="M24.624,48.822l0.002,0.002L3.001,126.434V36.069
		l0.004,0.001C6.741,47.575,15.229,49.016,24.624,48.822z M26.114,48.781c-0.498,0.018-0.992,0.031-1.486,0.041l-0.002,0.002
		l22.375,77.714V35.669C42.825,46.915,32.984,48.533,26.114,48.781z M26.114,48.781C13.289,49.244,1.746,47.533,1.026,22.75
		C0.56,6.691,6.524,1.17,22.976,1.005c0.321-0.004,0.641-0.006,0.955-0.006c14.8,0,25.07,3.679,25.07,21.751
		C49.001,45.84,35.044,48.459,26.114,48.781z M37.563,20.624c-1.75,3.125-4.354,2.498-13.874,2.625
		c-5.658,0.074-4.254-12.217-4.254-12.217 M33.29,23.086c3.276-0.895,4.772,0.162,4.608,2.152 M25.938,23.229
		c-1.026,0.977-1.626,1.924-2.499,3.77c-1.076,2.273,0.563,6.787,0.563,8.5 M29.655,35.368c0-2.762-0.82-5.324-2.07-9.078
		 M19.121,23.302c-2.959-0.662-6.265,2.234-8.129,3.484 M11.388,20.623c-0.427,1.916,8.977,3.267,11.937,2.607 M25.001,35.499
		c-10.954,0-18,0.375-16.35-14.316c0.271-7.054,5.647-11.065,16.828-10.217c9.824,0.748,15.512,4.043,15.512,11.1
		C40.991,33.875,34.751,35.665,25.001,35.499z M7.399,5.022l6.984,7.326 M34.355,12.805l6.92-8.206 M39.237,30.234l6.595,8.572
		 M3.112,36.407l6.078-6.132"/>
</g>
</svg>
