<?xml version="1.0" encoding="utf-8"?>

<!DOCTYPE svg PUBLIC "-//W3C//DTD SVG 1.1//EN" "http://www.w3.org/Graphics/SVG/1.1/DTD/svg11.dtd">
<svg version="1.1" id="ico" xmlns="http://www.w3.org/2000/svg" xmlns:xlink="http://www.w3.org/1999/xlink" x="0px" y="0px"
	 width="50px" height="130px" viewBox="0 0 50 130" enable-background="new 0 0 50 130" xml:space="preserve">
<g>
	<path fill="#3BC0C3" d="M4.125,51v4C11.172,55,21,68.315,21,90s-9.828,35-16.875,35v4C14.206,129,25,113.329,25,90
		S14.206,51,4.125,51z"/>
	<path fill="#3BC0C3" d="M45.875,55v-4C35.794,51,25,66.671,25,90s10.794,39,20.875,39v-4C38.828,125,29,111.685,29,90
		S38.828,55,45.875,55z"/>
</g>
</svg>
