<?xml version="1.0" encoding="utf-8"?>

<!DOCTYPE svg PUBLIC "-//W3C//DTD SVG 1.1//EN" "http://www.w3.org/Graphics/SVG/1.1/DTD/svg11.dtd">
<svg version="1.1" id="ico" xmlns="http://www.w3.org/2000/svg" xmlns:xlink="http://www.w3.org/1999/xlink" x="0px" y="0px"
	 width="50px" height="130px" viewBox="0 0 50 130" enable-background="new 0 0 50 130" xml:space="preserve">
<g>
	<g enable-background="new    ">
		<polygon fill="#07C0D3" points="25.588,117.743 21.588,117.743 21.588,110.92 28.324,106.561 11.712,95.162 28.395,83.739
			11.72,72.274 28.393,60.835 11.716,49.412 28.395,37.968 11.716,26.522 28.393,15.1 14.122,5.308 16.384,2.01 35.467,15.103
			18.79,26.525 35.465,37.968 18.79,49.409 35.467,60.833 18.786,72.278 35.465,83.747 18.788,95.166 35.535,106.658
			25.588,113.096 		"/>
	</g>
	<g enable-background="new    ">
		<polygon fill="#07C0D3" points="23.582,128.985 11.721,117.109 14.551,114.283 23.583,123.327 32.63,114.282 35.458,117.11 		"/>
	</g>
</g>
</svg>
