<?xml version="1.0" encoding="utf-8"?>

<!DOCTYPE svg PUBLIC "-//W3C//DTD SVG 1.1//EN" "http://www.w3.org/Graphics/SVG/1.1/DTD/svg11.dtd">
<svg version="1.1" id="ico" xmlns="http://www.w3.org/2000/svg" xmlns:xlink="http://www.w3.org/1999/xlink" x="0px" y="0px"
	 width="50px" height="50px" viewBox="0 0 50 50" enable-background="new 0 0 50 50" xml:space="preserve">
<g>
	<path fill="#3BC0C3" d="M28.051,28.932c0-0.633-0.227-1.141-0.675-1.525c-0.447-0.383-1.234-0.744-2.356-1.084
		c-1.957-0.564-3.438-1.235-4.439-2.012c-1.001-0.775-1.502-1.838-1.502-3.187s0.574-2.451,1.723-3.306
		c1.15-0.855,2.617-1.283,4.401-1.283c1.81,0,3.28,0.48,4.419,1.441c1.136,0.961,1.688,2.146,1.65,3.556L31.249,21.6h-3.197
		c0-0.762-0.253-1.379-0.764-1.849c-0.51-0.47-1.223-0.708-2.141-0.708c-0.881,0-1.561,0.195-2.045,0.589
		c-0.481,0.392-0.721,0.892-0.721,1.504c0,0.556,0.258,1.015,0.774,1.373c0.515,0.357,1.406,0.737,2.671,1.136
		c1.813,0.506,3.19,1.17,4.124,2.002c0.934,0.826,1.4,1.916,1.4,3.265c0,1.407-0.555,2.519-1.666,3.334
		c-1.108,0.813-2.576,1.22-4.398,1.22c-1.794,0-3.358-0.46-4.691-1.383c-1.335-0.924-1.982-2.219-1.944-3.881l0.021-0.07h3.21
		c0,0.979,0.299,1.697,0.896,2.155c0.601,0.455,1.435,0.684,2.504,0.684c0.896,0,1.578-0.186,2.055-0.554
		C27.812,30.049,28.051,29.551,28.051,28.932z"/>
</g>
<g>
	<path fill="#3BC0C3" d="M25,42c-9.374,0-17-7.627-17-17c0-9.375,7.626-17,17-17c9.373,0,17,7.625,17,17C42,34.373,34.373,42,25,42z
		 M25,11.089c-7.67,0-13.91,6.239-13.91,13.911c0,7.67,6.24,13.909,13.91,13.909S38.909,32.67,38.909,25
		C38.909,17.332,32.67,11.089,25,11.089z"/>
</g>
</svg>
