<?xml version="1.0" encoding="utf-8"?>

<!DOCTYPE svg PUBLIC "-//W3C//DTD SVG 1.1//EN" "http://www.w3.org/Graphics/SVG/1.1/DTD/svg11.dtd">
<svg version="1.1" id="ico" xmlns="http://www.w3.org/2000/svg" xmlns:xlink="http://www.w3.org/1999/xlink" x="0px" y="0px"
	 width="50px" height="18px" viewBox="0 0 50 18" enable-background="new 0 0 50 18" xml:space="preserve">
<g>
	<g>
		<path fill="#07C0D3" d="M47.361,12.692c-10.123-10.12-22.208-10.122-32.329,0l-1.639-1.64C24.374,0.074,38.018,0.076,49,11.053
			L47.361,12.692z"/>
	</g>
	<polygon fill="#07C0D3" points="17.267,15.182 12.86,15.182 10.655,15.182 10.646,15.182 10.646,12.975 10.655,12.975
		10.655,8.563 12.86,8.563 12.86,12.975 17.267,12.975 	"/>
	<g>
		<path fill="#07C0D3" d="M34.969,12.692c-10.123-10.122-22.208-10.125-32.33,0L1,11.053c10.982-10.98,24.629-10.979,35.607,0
			L34.969,12.692z"/>
	</g>
	<polygon fill="#07C0D3" points="32.732,15.182 37.143,15.182 39.348,15.182 39.352,15.182 39.352,12.975 39.348,12.975
		39.348,8.563 37.143,8.563 37.143,12.975 32.732,12.975 	"/>
</g>
</svg>
