<?xml version="1.0" encoding="utf-8"?>
<!-- Generator: Adobe Illustrator 16.0.0, SVG Export Plug-In . SVG Version: 6.00 Build 0)  -->
<!DOCTYPE svg PUBLIC "-//W3C//DTD SVG 1.1//EN" "http://www.w3.org/Graphics/SVG/1.1/DTD/svg11.dtd">
<svg version="1.1" id="Capa_1" xmlns="http://www.w3.org/2000/svg" xmlns:xlink="http://www.w3.org/1999/xlink" x="0px" y="0px"
	 width="24px" height="24px" viewBox="0 0 24 24" enable-background="new 0 0 24 24" xml:space="preserve">
<g>
	<polygon opacity="0.4" points="18.204,7.704 12.5,2 6.796,7.704 11.5,7.704 11.5,22 13.5,22 13.5,7.704 	"/>
	<polygon fill="#07C0D3" points="17.204,7.704 11.5,2 5.796,7.704 10.5,7.704 10.5,22 12.5,22 12.5,7.704 	"/>
</g>
</svg>
