<?xml version="1.0" encoding="utf-8"?>
<!-- Generator: Adobe Illustrator 16.0.0, SVG Export Plug-In . SVG Version: 6.00 Build 0)  -->
<!DOCTYPE svg PUBLIC "-//W3C//DTD SVG 1.1//EN" "http://www.w3.org/Graphics/SVG/1.1/DTD/svg11.dtd">
<svg version="1.1" id="Capa_1" xmlns="http://www.w3.org/2000/svg" xmlns:xlink="http://www.w3.org/1999/xlink" x="0px" y="0px"
	 width="24px" height="24px" viewBox="0 0 24 24" enable-background="new 0 0 24 24" xml:space="preserve">
<path fill="#283538" d="M4.784,1.091c-1.197,0-2.611,0.443-2.841,0.512c0,0,0,0-0.001,0v13.129c0.017-0.002,0.034-0.004,0.057-0.004
	c0.122,0,0.129,0.002,0.284,0.256c0.156,0.252,0.325,0.729,0.427,1.308c0.202,1.149,0.198,2.614,0.198,3.551
	c0,0.765,0.098,1.476,0.483,2.074c0.385,0.601,1.145,0.994,1.902,0.994c0.796,0,1.477-0.458,1.902-1.021
	c0.427-0.564,0.707-1.256,0.938-1.988c0.462-1.471,0.741-3.217,1.138-4.66c0.328-1.189,0.935-2.146,1.533-3.21
	c0.6-1.065,1.192-2.259,1.192-3.807C12.047,4.097,8.901,1.091,4.784,1.091z"/>
<path fill="#283538" d="M22.346,1.603c-0.738-0.291-1.543-0.512-2.416-0.512c-2.234,0-4.146,0.715-5.479,1.989
	c-1.335,1.274-2.046,3.091-2.046,5.142c0,1.548,0.595,2.741,1.192,3.807c0.6,1.065,1.203,2.021,1.535,3.21
	c0.396,1.468,0.674,3.222,1.135,4.688c0.23,0.733,0.51,1.398,0.938,1.962c0.43,0.562,1.11,1.021,1.903,1.021
	c0.76,0,1.519-0.395,1.904-0.994c0.385-0.602,0.481-1.311,0.481-2.074c0-0.938-0.002-2.398,0.198-3.551
	c0.102-0.576,0.271-1.055,0.426-1.307c0.126-0.207,0.156-0.245,0.229-0.254V1.603L22.346,1.603z"/>
<path fill="#FFFFFF" d="M3.847,14.018c0.359,0.586,0.531,1.263,0.654,1.961c0.245,1.397,0.227,2.938,0.227,3.862
	c0,0.563,0.106,0.937,0.199,1.08c0.092,0.144,0.094,0.17,0.369,0.17c0.178,0,0.246-0.036,0.454-0.313
	c0.209-0.273,0.454-0.782,0.653-1.42c0.398-1.271,0.676-3.021,1.107-4.603c0.416-1.502,1.174-2.613,1.732-3.608
	c0.561-0.994,0.938-1.823,0.938-2.926V8.193c0.037-3.248-2.104-5.284-5.396-5.284c-0.124,0-1.479,0.127-1.67,0.153
	c1.345,0.844,0.932,2.063,0.932,2.063S3.133,4.291,1.943,3.646v9.272c0.02,0,0.037-0.009,0.057-0.009
	C2.806,12.909,3.487,13.432,3.847,14.018z"/>
<path fill="#FFFFFF" d="M19.93,2.909c-1.861,0-3.25,0.566-4.201,1.478c-0.955,0.91-1.508,2.199-1.508,3.835
	c0,1.103,0.377,1.932,0.938,2.926c0.562,0.995,1.315,2.106,1.731,3.608c0.434,1.598,0.709,3.365,1.107,4.631
	c0.199,0.633,0.447,1.12,0.652,1.394c0.207,0.271,0.274,0.313,0.455,0.313c0.276,0,0.276-0.026,0.371-0.17
	c0.092-0.146,0.196-0.518,0.196-1.08c0-0.926-0.017-2.465,0.229-3.862c0.121-0.698,0.293-1.375,0.652-1.959
	c0.35-0.571,1.012-1.074,1.788-1.102V3.646C21.598,3.24,20.743,2.909,19.93,2.909z"/>
<g>
	<rect x="2.271" y="6.625" opacity="0.4" width="20.4" height="2"/>
	<rect x="1.329" y="6.625" fill="#07C0D3" width="20.4" height="2"/>
</g>
</svg>
