<?xml version="1.0" encoding="utf-8"?>
<!-- Generator: Adobe Illustrator 16.0.0, SVG Export Plug-In . SVG Version: 6.00 Build 0)  -->
<!DOCTYPE svg PUBLIC "-//W3C//DTD SVG 1.1//EN" "http://www.w3.org/Graphics/SVG/1.1/DTD/svg11.dtd">
<svg version="1.1" id="Capa_1" xmlns="http://www.w3.org/2000/svg" xmlns:xlink="http://www.w3.org/1999/xlink" x="0px" y="0px"
	 width="24px" height="24px" viewBox="0 0 24 24" enable-background="new 0 0 24 24" xml:space="preserve">
<g opacity="0.4">
	<g>
		<path d="M13.967,16.852h-1.94V7.173h1.94V16.852z"/>
	</g>
	<g>
		<path d="M15.416,7.173v0.97h-4.839v-0.97H15.416z"/>
	</g>
	<g>
		<path d="M15.416,15.882v0.97h-4.839v-0.97H15.416z"/>
	</g>
</g>
<g>
	<g>
		<path fill="#07C0D3" d="M12.967,16.852h-1.94V7.173h1.94V16.852z"/>
	</g>
	<g>
		<path fill="#07C0D3" d="M14.416,7.173v0.97H9.577v-0.97H14.416z"/>
	</g>
	<g>
		<path fill="#07C0D3" d="M14.416,15.882v0.97H9.577v-0.97H14.416z"/>
	</g>
</g>
<g id="Capa_2">
</g>
</svg>
