<?xml version="1.0" encoding="utf-8"?>
<!-- Generator: Adobe Illustrator 16.0.0, SVG Export Plug-In . SVG Version: 6.00 Build 0)  -->
<!DOCTYPE svg PUBLIC "-//W3C//DTD SVG 1.1//EN" "http://www.w3.org/Graphics/SVG/1.1/DTD/svg11.dtd">
<svg version="1.1" id="Capa_1" xmlns="http://www.w3.org/2000/svg" xmlns:xlink="http://www.w3.org/1999/xlink" x="0px" y="0px"
	 width="24px" height="24px" viewBox="0 0 24 24" enable-background="new 0 0 24 24" xml:space="preserve">
<g opacity="0.4">
	<path d="M4.814,8.534l1.766,5.108h0.029l1.78-5.108h1.818v6.931h-1.39v-2.065l0.133-3.061l-0.029-0.005l-1.856,5.131H6.132
		l-1.847-5.112l-0.028,0.005l0.133,3.042v2.065H3V8.534H4.814z"/>
	<path d="M15.225,13.971h-2.432l-0.471,1.494h-1.405l2.386-6.931h1.422l2.377,6.931h-1.404L15.225,13.971z M13.136,12.881h1.747
		l-0.857-2.724h-0.027L13.136,12.881z"/>
	<path d="M22.98,13.104l0.01,0.028c0.012,0.746-0.217,1.338-0.684,1.775c-0.469,0.438-1.117,0.658-1.949,0.658
		c-0.836,0-1.512-0.27-2.033-0.805c-0.52-0.537-0.781-1.227-0.781-2.071v-1.376c0-0.84,0.254-1.531,0.762-2.071
		c0.508-0.539,1.168-0.809,1.98-0.809c0.857,0,1.527,0.22,2.01,0.66s0.717,1.039,0.705,1.797l-0.01,0.028h-1.352
		c0-0.457-0.111-0.806-0.328-1.05c-0.221-0.243-0.563-0.364-1.025-0.364c-0.414,0-0.744,0.168-0.99,0.506
		c-0.244,0.338-0.365,0.768-0.365,1.291v1.385c0,0.529,0.129,0.963,0.385,1.301c0.258,0.338,0.605,0.506,1.043,0.506
		c0.436,0,0.756-0.115,0.963-0.35c0.209-0.232,0.313-0.58,0.313-1.04H22.98z"/>
</g>
<g>
	<path fill="#07C0D3" d="M3.814,8.534l1.766,5.108h0.029l1.78-5.108h1.818v6.931h-1.39v-2.065l0.133-3.061l-0.029-0.005
		l-1.856,5.131H5.132l-1.847-5.112l-0.028,0.005l0.133,3.042v2.065H2V8.534H3.814z"/>
	<path fill="#07C0D3" d="M14.225,13.971h-2.432l-0.471,1.494H9.917l2.385-6.931h1.422l2.377,6.931h-1.404L14.225,13.971z
		 M12.136,12.881h1.747l-0.858-2.724h-0.027L12.136,12.881z"/>
	<path fill="#07C0D3" d="M21.98,13.104l0.01,0.028c0.012,0.746-0.217,1.338-0.684,1.775c-0.469,0.438-1.117,0.658-1.949,0.658
		c-0.836,0-1.512-0.27-2.033-0.805c-0.52-0.537-0.781-1.227-0.781-2.071v-1.376c0-0.84,0.254-1.531,0.762-2.071
		c0.508-0.539,1.168-0.809,1.98-0.809c0.857,0,1.527,0.22,2.01,0.66s0.717,1.039,0.705,1.797l-0.01,0.028h-1.352
		c0-0.457-0.111-0.806-0.328-1.05c-0.221-0.243-0.563-0.364-1.025-0.364c-0.414,0-0.744,0.168-0.99,0.506
		c-0.244,0.338-0.365,0.768-0.365,1.291v1.385c0,0.529,0.129,0.963,0.385,1.301c0.258,0.338,0.605,0.506,1.043,0.506
		c0.436,0,0.756-0.115,0.963-0.35c0.209-0.232,0.313-0.58,0.313-1.04H21.98z"/>
</g>
<g id="Capa_2">
</g>
</svg>
