<?xml version="1.0" encoding="utf-8"?>
<!-- Generator: Adobe Illustrator 16.0.0, SVG Export Plug-In . SVG Version: 6.00 Build 0)  -->
<!DOCTYPE svg PUBLIC "-//W3C//DTD SVG 1.1//EN" "http://www.w3.org/Graphics/SVG/1.1/DTD/svg11.dtd">
<svg version="1.1" id="Capa_1" xmlns="http://www.w3.org/2000/svg" xmlns:xlink="http://www.w3.org/1999/xlink" x="0px" y="0px"
	 width="24px" height="24px" viewBox="0 0 24 24" enable-background="new 0 0 24 24" xml:space="preserve">
<g opacity="0.4">
	<path d="M5.183,7.829l2.125,6.147h0.035l2.143-6.147h2.188v8.342h-1.673v-2.486l0.161-3.684l-0.035-0.006l-2.234,6.176H6.77
		l-2.223-6.153l-0.034,0.006l0.161,3.661v2.486H3V7.829H5.183z"/>
	<path d="M15.014,16.171h-1.673V7.829h1.673V16.171z"/>
	<path d="M22.977,13.329l0.012,0.035c0.015,0.896-0.259,1.608-0.822,2.137c-0.563,0.526-1.346,0.79-2.346,0.79
		c-1.004,0-1.82-0.322-2.447-0.968c-0.626-0.646-0.938-1.477-0.938-2.492v-1.656c0-1.012,0.305-1.842,0.916-2.492
		c0.611-0.649,1.405-0.974,2.384-0.974c1.031,0,1.837,0.264,2.418,0.793c0.58,0.53,0.862,1.25,0.847,2.163l-0.011,0.034h-1.627
		c0-0.549-0.132-0.97-0.396-1.263c-0.264-0.292-0.674-0.438-1.231-0.438c-0.501,0-0.898,0.203-1.192,0.609
		c-0.293,0.406-0.44,0.924-0.44,1.553v1.666c0,0.637,0.154,1.159,0.464,1.565s0.727,0.609,1.255,0.609
		c0.522,0,0.909-0.14,1.16-0.421c0.249-0.28,0.375-0.698,0.375-1.252H22.977z"/>
</g>
<g>
	<path fill="#07C0D3" d="M4.183,7.829l2.125,6.147h0.035l2.143-6.147h2.188v8.342H9.001v-2.486l0.161-3.684L9.127,9.995
		l-2.234,6.176H5.77l-2.223-6.153l-0.034,0.006l0.161,3.661v2.486H2V7.829H4.183z"/>
	<path fill="#07C0D3" d="M14.014,16.171h-1.673V7.829h1.673V16.171z"/>
	<path fill="#07C0D3" d="M21.977,13.329l0.012,0.035c0.015,0.896-0.259,1.608-0.822,2.137c-0.563,0.526-1.346,0.79-2.346,0.79
		c-1.004,0-1.82-0.322-2.447-0.968c-0.626-0.646-0.938-1.477-0.938-2.492v-1.656c0-1.012,0.305-1.842,0.916-2.492
		c0.611-0.649,1.405-0.974,2.384-0.974c1.031,0,1.837,0.264,2.418,0.793c0.58,0.53,0.862,1.25,0.847,2.163l-0.011,0.034h-1.627
		c0-0.549-0.132-0.97-0.396-1.263c-0.264-0.292-0.674-0.438-1.231-0.438c-0.501,0-0.898,0.203-1.192,0.609
		c-0.293,0.406-0.44,0.924-0.44,1.553v1.666c0,0.637,0.154,1.159,0.464,1.565s0.727,0.609,1.255,0.609
		c0.522,0,0.909-0.14,1.16-0.421c0.249-0.28,0.375-0.698,0.375-1.252H21.977z"/>
</g>
<g id="Capa_2">
</g>
</svg>
