<?xml version="1.0" encoding="utf-8"?>
<!-- Generator: Adobe Illustrator 16.0.0, SVG Export Plug-In . SVG Version: 6.00 Build 0)  -->
<!DOCTYPE svg PUBLIC "-//W3C//DTD SVG 1.1//EN" "http://www.w3.org/Graphics/SVG/1.1/DTD/svg11.dtd">
<svg version="1.1" id="Capa_1" xmlns="http://www.w3.org/2000/svg" xmlns:xlink="http://www.w3.org/1999/xlink" x="0px" y="0px"
	 width="24px" height="24px" viewBox="0 0 24 24" enable-background="new 0 0 24 24" xml:space="preserve">
<g opacity="0.4">
	<rect x="3" y="9" width="20" height="2"/>
	<rect x="3" y="13" width="20" height="2"/>
</g>
<g>
	<rect x="2" y="9" fill="#07C0D3" width="20" height="2"/>
	<rect x="2" y="13" fill="#07C0D3" width="20" height="2"/>
</g>
</svg>
