<?xml version="1.0" encoding="utf-8"?>
<!-- Generator: Adobe Illustrator 16.0.0, SVG Export Plug-In . SVG Version: 6.00 Build 0)  -->
<!DOCTYPE svg PUBLIC "-//W3C//DTD SVG 1.1//EN" "http://www.w3.org/Graphics/SVG/1.1/DTD/svg11.dtd">
<svg version="1.1" id="Capa_1" xmlns="http://www.w3.org/2000/svg" xmlns:xlink="http://www.w3.org/1999/xlink" x="0px" y="0px"
	 width="24px" height="24px" viewBox="0 0 24 24" enable-background="new 0 0 24 24" xml:space="preserve">
<g>
	<path fill="#283538" d="M14.783,1.091c-1.197,0-2.611,0.443-2.841,0.512c-0.738-0.291-1.543-0.512-2.415-0.512
		c-2.236,0-4.147,0.715-5.481,1.989C2.711,4.354,2,6.171,2,8.222c0,1.548,0.594,2.741,1.193,3.807
		c0.599,1.065,1.203,2.021,1.534,3.21c0.396,1.468,0.675,3.222,1.135,4.688c0.231,0.733,0.51,1.398,0.938,1.962
		c0.429,0.562,1.111,1.021,1.904,1.021c0.759,0,1.517-0.395,1.904-0.994c0.385-0.602,0.482-1.311,0.482-2.074
		c0-0.938-0.002-2.398,0.199-3.551c0.1-0.576,0.27-1.055,0.425-1.307c0.155-0.254,0.163-0.256,0.284-0.256
		c0.122,0,0.129,0.002,0.284,0.256c0.156,0.252,0.325,0.729,0.427,1.307c0.202,1.15,0.198,2.614,0.198,3.551
		c0,0.764,0.098,1.475,0.483,2.074c0.385,0.6,1.145,0.994,1.901,0.994c0.796,0,1.478-0.458,1.901-1.021
		c0.428-0.563,0.707-1.255,0.938-1.988c0.462-1.471,0.741-3.217,1.138-4.659c0.328-1.189,0.936-2.146,1.533-3.21
		c0.6-1.065,1.192-2.259,1.192-3.807C22.046,4.097,18.9,1.091,14.783,1.091z"/>
	<path fill="#FFFFFF" d="M9.527,2.909c-1.863,0-3.25,0.566-4.203,1.478c-0.955,0.91-1.507,2.199-1.507,3.835
		c0,1.103,0.378,1.932,0.938,2.926c0.561,0.995,1.317,2.106,1.733,3.608c0.432,1.598,0.709,3.365,1.107,4.631
		c0.2,0.633,0.447,1.12,0.653,1.394c0.207,0.271,0.274,0.313,0.455,0.313c0.276,0,0.277-0.026,0.37-0.17
		c0.092-0.146,0.197-0.518,0.197-1.08c0-0.926-0.016-2.465,0.229-3.862c0.121-0.698,0.294-1.375,0.653-1.959
		c0.35-0.571,1.011-1.074,1.789-1.102V3.646C11.195,3.24,10.34,2.909,9.527,2.909z"/>
	<path fill="#C9D3D6" d="M13.846,14.018c0.359,0.586,0.531,1.263,0.654,1.961c0.245,1.397,0.227,2.938,0.227,3.862
		c0,0.563,0.106,0.937,0.199,1.08c0.092,0.144,0.094,0.17,0.369,0.17c0.178,0,0.246-0.036,0.454-0.313
		c0.209-0.273,0.454-0.782,0.653-1.42c0.397-1.271,0.676-3.021,1.106-4.603c0.416-1.502,1.175-2.613,1.732-3.608
		c0.562-0.994,0.938-1.823,0.938-2.926V8.193c0.036-3.248-2.104-5.284-5.396-5.284c-0.124,0-1.479,0.127-1.67,0.153
		c1.345,0.844,0.932,2.063,0.932,2.063s-0.913-0.834-2.103-1.479v9.272c0.02,0,0.037-0.009,0.057-0.009
		C12.805,12.909,13.486,13.432,13.846,14.018z"/>
</g>
<path fill="none" d="M0,0h24v24H0V0z"/>
<g opacity="0.4" enable-background="new    ">
	<path d="M15.744,10.984c-2.247,0-4.075-1.828-4.075-4.075c0-2.247,1.828-4.075,4.075-4.075c2.246,0,4.074,1.828,4.074,4.075
		C19.818,9.156,17.99,10.984,15.744,10.984z M15.744,3.834c-1.695,0-3.075,1.379-3.075,3.075c0,1.695,1.38,3.075,3.075,3.075
		s3.074-1.379,3.074-3.075C18.818,5.213,17.439,3.834,15.744,3.834z"/>
</g>
<g enable-background="new    ">
	<path fill="#07C0D3" d="M14.744,10.984c-2.247,0-4.075-1.828-4.075-4.075c0-2.247,1.828-4.075,4.075-4.075
		c2.246,0,4.074,1.828,4.074,4.075C18.818,9.156,16.99,10.984,14.744,10.984z M14.744,3.834c-1.695,0-3.075,1.379-3.075,3.075
		c0,1.695,1.38,3.075,3.075,3.075s3.074-1.379,3.074-3.075C17.818,5.213,16.439,3.834,14.744,3.834z"/>
</g>
</svg>
