<?xml version="1.0" encoding="utf-8"?>
<!-- Generator: Adobe Illustrator 16.0.0, SVG Export Plug-In . SVG Version: 6.00 Build 0)  -->
<!DOCTYPE svg PUBLIC "-//W3C//DTD SVG 1.1//EN" "http://www.w3.org/Graphics/SVG/1.1/DTD/svg11.dtd">
<svg version="1.1" id="Capa_1" xmlns="http://www.w3.org/2000/svg" xmlns:xlink="http://www.w3.org/1999/xlink" x="0px" y="0px"
	 width="24px" height="24px" viewBox="0 0 24 24" enable-background="new 0 0 24 24" xml:space="preserve">
<g opacity="0.4" enable-background="new    ">
	<path d="M13.03,14.325c0-0.372-0.132-0.671-0.396-0.897c-0.264-0.226-0.726-0.438-1.386-0.638
		c-1.152-0.332-2.023-0.727-2.612-1.184c-0.589-0.456-0.884-1.081-0.884-1.874S8.09,8.291,8.766,7.788s1.539-0.755,2.589-0.755
		c1.063,0,1.93,0.283,2.599,0.848c0.669,0.565,0.992,1.262,0.971,2.091l-0.014,0.04H13.03c0-0.448-0.149-0.811-0.448-1.087
		c-0.3-0.277-0.72-0.416-1.26-0.416c-0.519,0-0.919,0.115-1.203,0.346S9.693,9.38,9.693,9.739c0,0.327,0.152,0.597,0.455,0.808
		c0.304,0.21,0.828,0.433,1.572,0.668c1.068,0.297,1.877,0.688,2.426,1.177c0.55,0.487,0.824,1.128,0.824,1.921
		c0,0.828-0.327,1.482-0.98,1.961s-1.516,0.718-2.588,0.718c-1.055,0-1.975-0.271-2.759-0.814c-0.785-0.543-1.166-1.304-1.144-2.283
		l0.013-0.04h1.888c0,0.576,0.176,0.998,0.528,1.267c0.353,0.268,0.843,0.402,1.473,0.402c0.527,0,0.93-0.109,1.209-0.326
		S13.03,14.689,13.03,14.325z"/>
	<path d="M18.501,16.852H16.56V7.173h1.941V16.852z"/>
</g>
<g>
	<path fill="#07C0D3" d="M12.03,14.325c0-0.372-0.132-0.671-0.396-0.897c-0.264-0.226-0.726-0.438-1.386-0.638
		c-1.152-0.332-2.023-0.727-2.612-1.184c-0.589-0.456-0.884-1.081-0.884-1.874S7.09,8.291,7.766,7.788s1.539-0.755,2.589-0.755
		c1.063,0,1.93,0.283,2.599,0.848c0.669,0.565,0.992,1.262,0.971,2.091l-0.014,0.04H12.03c0-0.448-0.149-0.811-0.449-1.087
		c-0.299-0.277-0.719-0.416-1.26-0.416c-0.519,0-0.919,0.115-1.203,0.346S8.693,9.38,8.693,9.739c0,0.327,0.152,0.597,0.455,0.808
		c0.304,0.21,0.828,0.433,1.572,0.668c1.068,0.297,1.877,0.688,2.426,1.177c0.55,0.487,0.824,1.128,0.824,1.921
		c0,0.828-0.327,1.482-0.98,1.961s-1.516,0.718-2.588,0.718c-1.055,0-1.975-0.271-2.759-0.814c-0.785-0.543-1.166-1.304-1.144-2.283
		l0.013-0.04h1.888c0,0.576,0.176,0.998,0.528,1.267c0.353,0.268,0.843,0.402,1.473,0.402c0.527,0,0.93-0.109,1.209-0.326
		S12.03,14.689,12.03,14.325z"/>
	<path fill="#07C0D3" d="M17.501,16.852H15.56V7.173h1.941V16.852z"/>
</g>
</svg>
