<?xml version="1.0" encoding="utf-8"?>
<!-- Generator: Adobe Illustrator 16.0.0, SVG Export Plug-In . SVG Version: 6.00 Build 0)  -->
<!DOCTYPE svg PUBLIC "-//W3C//DTD SVG 1.1//EN" "http://www.w3.org/Graphics/SVG/1.1/DTD/svg11.dtd">
<svg version="1.1" id="Capa_1" xmlns="http://www.w3.org/2000/svg" xmlns:xlink="http://www.w3.org/1999/xlink" x="0px" y="0px"
	 width="24px" height="24px" viewBox="0 0 24 24" enable-background="new 0 0 24 24" xml:space="preserve">
<g opacity="0.4">
	<path d="M14.812,14.325c0-0.372-0.132-0.671-0.396-0.897c-0.264-0.226-0.726-0.438-1.386-0.638
		c-1.152-0.332-2.023-0.727-2.613-1.184c-0.589-0.456-0.884-1.081-0.884-1.874s0.338-1.441,1.014-1.944s1.539-0.755,2.589-0.755
		c1.063,0,1.93,0.283,2.599,0.848c0.669,0.565,0.993,1.262,0.971,2.091l-0.013,0.04h-1.882c0-0.448-0.149-0.811-0.448-1.087
		c-0.3-0.277-0.72-0.416-1.26-0.416c-0.519,0-0.92,0.115-1.204,0.346s-0.425,0.525-0.425,0.885c0,0.327,0.152,0.597,0.455,0.808
		c0.304,0.21,0.828,0.433,1.572,0.668c1.068,0.297,1.877,0.688,2.426,1.177c0.55,0.487,0.824,1.128,0.824,1.921
		c0,0.828-0.326,1.482-0.98,1.961c-0.653,0.479-1.516,0.718-2.588,0.718c-1.056,0-1.975-0.271-2.759-0.814
		c-0.785-0.543-1.166-1.304-1.144-2.283l0.013-0.04h1.888c0,0.576,0.176,0.998,0.528,1.267c0.353,0.268,0.843,0.402,1.473,0.402
		c0.526,0,0.93-0.109,1.209-0.326S14.812,14.689,14.812,14.325z"/>
</g>
<g>
	<path fill="#3BC0C3" d="M13.812,14.325c0-0.372-0.132-0.671-0.396-0.897c-0.264-0.226-0.726-0.438-1.386-0.638
		c-1.152-0.332-2.023-0.727-2.612-1.184c-0.589-0.456-0.884-1.081-0.884-1.874s0.338-1.441,1.014-1.944s1.539-0.755,2.589-0.755
		c1.063,0,1.93,0.283,2.599,0.848c0.669,0.565,0.993,1.262,0.971,2.091l-0.013,0.04h-1.882c0-0.448-0.149-0.811-0.448-1.087
		c-0.3-0.277-0.72-0.416-1.26-0.416c-0.519,0-0.919,0.115-1.203,0.346s-0.425,0.525-0.425,0.885c0,0.327,0.152,0.597,0.455,0.808
		c0.304,0.21,0.828,0.433,1.572,0.668c1.068,0.297,1.877,0.688,2.426,1.177c0.55,0.487,0.824,1.128,0.824,1.921
		c0,0.828-0.326,1.482-0.98,1.961c-0.653,0.479-1.516,0.718-2.588,0.718c-1.055,0-1.975-0.271-2.759-0.814
		c-0.785-0.543-1.166-1.304-1.144-2.283l0.013-0.04h1.888c0,0.576,0.176,0.998,0.528,1.267c0.353,0.268,0.843,0.402,1.473,0.402
		c0.527,0,0.93-0.109,1.209-0.326S13.812,14.689,13.812,14.325z"/>
</g>
<g opacity="0.4">
	<path d="M13,22C7.486,22,3,17.514,3,12C3,6.486,7.486,2,13,2c5.514,0,10,4.486,10,10C23,17.514,18.514,22,13,22z M13,3.818
		c-4.511,0-8.182,3.67-8.182,8.182c0,4.512,3.67,8.182,8.182,8.182c4.512,0,8.182-3.67,8.182-8.182
		C21.182,7.489,17.512,3.818,13,3.818z"/>
</g>
<g>
	<path fill="#3BC0C3" d="M12,22C6.486,22,2,17.514,2,12C2,6.486,6.486,2,12,2c5.514,0,10,4.486,10,10C22,17.514,17.514,22,12,22z
		 M12,3.818c-4.511,0-8.182,3.67-8.182,8.182c0,4.512,3.67,8.182,8.182,8.182c4.512,0,8.182-3.67,8.182-8.182
		C20.182,7.489,16.512,3.818,12,3.818z"/>
</g>
</svg>
